[web/index.html]
[backblue.gif]
[fade.gif]
[index.html]
[web/css/design.default.bootstrap.v0-0-1.css]
[web/ico/favicon.ico]
[web/js/head.js]
[web/faqs.html]
[web/samples-and-coupons.html]
[web/email-newsletter-signup.html]
[web/search-results.html]
[web/png/placeholder1350.png]
[web/png/gsk_branlogo_header1350.png]
[web/png/breathright-logo1350.png]
[web/causes-of-congestion.html]
[web/tips-for-better-sleep.html]
[web/how-to-breathe-better.html]
[web/products.html]
[web/breathe-right-original-tan.html]
[web/breathe-right-original-clear.html]
[web/breathe-right-extra-strength-tan.html]
[web/breathe-right-extra-strength-clear.html]
[web/breathe-right-lavender.html]
[web/buy-now.html]
[web/png/gsk_brandlogo1350.png]
[web/jpg/smiling-man1350.jpg]
[web/png/breathe-right-extra-strength-tan1350.png]
[web/png/illustration-of-blocked-nose1350.png]
[web/png/gsk_branlogo_footer1350.png]
[web/contact-us.html]
[web/site-map.html]
[web/index.html]
[web/js/design.default.bootstrap.v0-0-1.js]
[web/gif/loading.gif]
[web/png/controls.png]
[web/gif/loader.gif]
[web/woff/unisans-regular.woff]
[web/woff/unisans-bold.woff]
[web/woff/unisans-semibold.woff]
[web/woff/opensans-regular.woff]
[web/woff/opensans-bold.woff]
[web/woff/opensans-semibold.woff]
[web/png/scissors1.png]
[web/png/scissors-white.png]
[web/png/checkmark.png]
[web/png/star-idle.png]
[web/png/star.png]
[web/png/half-star.png]
[web/png/star-quarter.png]
[web/png/star-thirdquarter.png]
[web/png/stars-sprite.png]
[web/png/ui-icons_222222_256x240.png]
[web/png/ui-icons_ff7a21_256x240.png]
[web/png/ui-icons_ffffff_256x240.png]
[web/png/ui-icons_3572ac_256x240.png]
[web/png/ui-icons_fbdb93_256x240.png]
[web/png/search-icon.png]
[web/gif/stars.gif]
[web/gif/stars_small.gif]
[web/png/filter-plus.png]
[web/png/filter-minus.png]
[web/png/page-arrow-1.png]
[web/png/page-arrow-2.png]
[web/png/carousel-arrow.png]
[web/css/design.default.bootstrap.v0-0-1.css]
[web/faqs.html]
[web/jpg/man-in-bed-waking-up1350.jpg]
[web/samples-sign-up.html]
[web/samples-and-coupons.html]
[web/email-newsletter-signup.html]
[web/search-results.html]
[web/png/illustration-of-pollen-flower1350.png]
[web/png/illustration-tissue-box-tea-thermometer1350.png]
[web/png/illustration-of-nose-with-deviated-septum1350.png]
[web/png/illustration-of-snoring-person1350.png]
[web/png/dog-and-cat-pets1350.png]
[web/jpg/man-sleeping-with-breathe-right-nasal-strip1350.jpg]
[web/how-cold-season-affects-sleep.html]
[web/png/illustration-of-pillow1350.png]
[web/eating-before-bed.html]
[web/jpg/tea-cups-tea-pot-dried-tea1350.jpg]
[web/how-mouth-breathing-hurts-sleep.html]
[web/jpg/man-blue-shirt-sleeping-with-breathe-right-nasal-strip1350.jpg]
[web/how-humidity-affects-sleep.html]
[web/jpg/woman-in-bed-sleeping-with-breathe-right-nasal-strips1350.jpg]
[web/stuffy-nose-and-snoring.html]
[web/jpg/man-and-woman-sleeping-holding-hands1350.jpg]
[web/nighttime-nasal-congestion-causes.html]
[web/jpg/woman-with-long-hair-sleeping-in-bed1350.jpg]
[web/mind-and-sleep.html]
[web/jpg/man-looking-at-cell-phone-in-bed1350.jpg]
[web/allergies-nighttime-nasal-congestion-sleep.html]
[web/png/illustration-of-flower1350.png]
[web/jpg/sleeping-woman-holding-sleeping-child1350.jpg]
[web/causes-of-congestion.html]
[web/jpg/sleeping-couple-in-bed1350.jpg]
[web/good-sleep-checklist.html]
[web/jpg/breathe-right-ease-summer-allergies-article1350.jpg]
[web/jpg/breathe-right-sleep-deprivation-increases-aches-and-pains-article1350.jpg]
[web/jpg/breathe-right-why-your-air-conditioner-could-cause-stuffy-nose-main-teaser21350.jpg]
[web/jpg/smiling-woman-eyes-closed-hammock1350.jpg]
[web/sleep-deprivation-signs.html]
[web/jpg/woman-gray-tank-top-sleeping-in-bed1350.jpg]
[web/benefits-of-sleep.html]
[web/jpg/man-denim-button-down-shirt-sleeping-couch1350.jpg]
[web/how-to-sleep-next-to-snorer.html]
[web/jpg/woman-man-couple-sleeping-in-bed1350.jpg]
[web/sleeping-with-chronic-congestion.html]
[web/jpg/woman-gray-sweater-sleeping-breathe-right-strip1350.jpg]
[web/sleep-during-daylight-saving.html]
[web/jpg/back-of-man-stretching-while-waking-up1350.jpg]
[web/what-happens-when-you-lose-sleep.html]
[web/jpg/smiling-man-white-shirt-stretching-in-bed1350.jpg]
[web/jpg/8 ways to sleep like a baby while traveling this holiday season1350.jpg]
[web/jpg/how-to-turn-your-stuffy-room-into-a-tropical-paradise1350.jpg]
[web/science-of-beauty-sleep.html]
[web/jpg/smiling-woman-lying-in-bed-stretching1350.jpg]
[web/how-to-sleep-with-pets.html]
[web/jpg/sleeping-man-holding-small-sleeping-dog1350.jpg]
[web/turn-your-bedroom-into-a-sleep-oasis.html]
[web/jpg/tea-dried-lavender-rustic-table1350.jpg]
[web/how-to-recover-from-a-bad-nights-sleep.html]
[web/jpg/woman-in-deep-sleep-on-white-bedding1350.jpg]
[web/how-to-sleep-on-airplane.html]
[web/jpg/woman-sleeping-on-airplane-next-to-window1350.jpg]
[web/jpg/breathe-right-natural-tea-may-help-soothe-congestion-article1350.jpg]
[web/jpg/breathe-right-reasons-stuffy-nose-at-night-article1350.jpg]
[web/jpg/breathe-right-how-to-sleep-on-a-plane-article1350.jpg]
[web/jpg/breathe-right-home-remedies-for-snoring-article1350.jpg]
[web/jpg/breathe-right-better-sleep-apps-article1350.jpg]
[web/jpg/breathe-right-how-to-sleep-heat-is-on-article1350.jpg]
[web/jpg/stuffy-nose-remedies-related1350.jpg]
[web/jpg/breathe-right-what-causes-snoring-pillows-article1350.jpg]
[web/jpg/breathe-right-steps-make-dorm-room-allergy-friendly-article1350.jpg]
[web/jpg/raking-fall-allergy-symptoms-thumbnail1350.jpg]
[web/jpg/breathe-right-what-you-may-not-know-about-fall-allergies-article1350.jpg]
[web/how-to-sleep-outdoors.html]
[web/jpg/smiling-woman-eyes-closed-hammock_mobile1350.jpg]
[web/png/breathe-right-thoughts-you-have-when-nighttime-nasal-congestion-is-keeping-you-awake-main1350.png]
[web/jpg/drug-free-spring-allergy-treatments1350.jpg]
[web/jpg/breathe-right-when-we-don’t-sleep-well-our-immune-system-weakens-article1350.jpg]
[web/jpg/breathe-right-camping-checklist-for-people-with-season-allergies-article1350.jpg]
[web/jpg/breathe-right-what-is-a-deviated-septum-article1350.jpg]
[web/jpg/breathe-right-spring-cleaning-allergies-article1350.jpg]
[web/jpg/breathe-right-wake-up-in-the-middle-of-the-night-with-stuffy-nose-top-article1350.jpg]
[web/jpg/breathe-right-can-you-catch-up-on-sleep-article1350.jpg]
[web/jpg/breathe-right-what-is-congestion-article1350.jpg]
[web/jpg/breathe-right-can-nettle-tea-help-with-spring-allergies-article1350.jpg]
[web/jpg/breathe-right-reasons-not-sleeping-well-article1350.jpg]
[web/jpg/breathe-right-diy-spa-day-relaxation-article1350.jpg]
[web/jpg/breathe-right-undercover-ways-your-partner-is-sabotaging-your-sleep-main1350.jpg]
[web/jpg/breathe-right-less-sleep-means-more-winter-colds-main1350.jpg]
[web/jpg/breathe-right-reasons-nose-feels-stuffy-in-winter-main1350.jpg]
[web/jpg/breathe-right-foods-and-drinks-that-make-nighttime-congestion-worse-main1350.jpg]
[web/jpg/breathe-right-drug-free-remedies-for-a-good-nights-sleep-main1350.jpg]
[web/jpg/breathe-right-how-to-politely-talk-to-partner-about-snoring-main1350.jpg]
[web/jpg/breathe-right-open-windows-seasonal-allergies-article1350.jpg]
[web/tips-for-better-sleep.html]
[web/jpg/illustration-of-woman-with-soap-bubbles1350.jpg]
[web/jpg/illustration-of breathe-right-nasal-strip1350.jpg]
[web/jpg/illustration-of breathe-right-nasal-strip-on-woman-nose1350.jpg]
[web/jpg/young-woman-applying-breathe-right-nasal-strip1350.jpg]
[web/how-breathe-right-nasal-strips-work.html]
[web/how-to-relieve-nasal-congestion-at-home.html]
[web/jpg/mint-tea-honey-jar-sliced-apple1350.jpg]
[web/jpg/man-with-laughing-child1350.jpg]
[web/facts-about-the-human-nose.html]
[web/relaxing-scents-for-better-sleep.html]
[web/jpg/dried-lavender-flowers-and-aroma-essences1350.jpg]
[web/how-to-breathe-better.html]
[web/png/breathe-right-extra-strength-clear1350.png]
[web/png/breathe-right-original-nasal-strips1350.png]
[web/png/breathe-right-original-clear-nasal-strips1350.png]
[web/png/breathe-right-lavender1350.png]
[web/products.html]
[web/breathe-right-original-tan.html]
[web/breathe-right-original-clear.html]
[web/breathe-right-extra-strength-tan.html]
[web/breathe-right-extra-strength-clear.html]
[web/breathe-right-lavender.html]
[web/png/close.png]
[web/buy-now.html]
[web/contact-us.html]
[web/site-map.html]
[web/background.html]
[web/background-2.html]
[web/close.html]
[web/loader.html]
[web/down_arrow_black.html]
[web/bigplay.html]
[web/loading.html]
[web/background-3.html]
[web/controls.html]
[web/loader-2.html]
[web/arrow-blue-right.html]
[web/play_button.html]
[web/fullsize.html]
[web/volumebutton.html]
[web/hover_fullscreen.html]
[web/hover_play_button.html]
[web/hover_volume.html]
[web/play.html]
[web/ellipse2.html]
[web/samples-sign-up.html]
[web/png/mail1350.png]
[web/how-cold-season-affects-sleep.html]
[web/eating-before-bed.html]
[web/how-mouth-breathing-hurts-sleep.html]
[web/jpg/smiling-woman-eyes-closed-hammock1350-2.jpg]
[web/how-humidity-affects-sleep.html]
[web/stuffy-nose-and-snoring.html]
[web/nighttime-nasal-congestion-causes.html]
[web/jpg/smiling-woman-lying-in-bed-stretching_mobile1350.jpg]
[web/mind-and-sleep.html]
[web/allergies-nighttime-nasal-congestion-sleep.html]
[web/woff/unisans-regular-2.woff]
[web/woff/unisans-bold-2.woff]
[web/woff/unisans-semibold-2.woff]
[web/png/scissors-white-2.png]
[web/png/logo.png]
[web/png/search-icon-dark-mobile.png]
[web/png/gsk-logo.png]
[web/jpg/sleeping-couple-in-bed.jpg]
[web/jpg/breathe-right-tips-for-fighting-back-against-nasal-congestion-in-2019-main.jpg]
[web/jpg/breathe-right-how-to-turn-your-stuffy-bedroom-into-a-tropical-paradise-main.jpg]
[web/jpg/breatherightarticle01-main.jpg]
[web/jpg/breathe-right-thoughts-you-have-when-nighttime-nasal-congestion-is-keeping-you-awake-main.jpg]
[web/jpg/woman-gray-tank-top-sleeping-in-bed.jpg]
[web/jpg/man-denim-button-down-shirt-sleeping-couch.jpg]
[web/tips-for-better-sleep-2.html]
[web/svg/illustration-of-nasal-airway.svg]
[web/svg/illustration-of-person-sleeping.svg]
[web/svg/illustration-of breathe-right-nasal-strip-on-nose.svg]
[web/good-sleep-checklist.html]
[web/svg/illustration-of-sleep-checklist.svg]
[web/jpg/breathe-right-ease-summer-allergies-main.jpg]
[web/jpg/breathe-right-what-is-a-deviated-septum-related-article.jpg]
[web/jpg/breathe-right-camping-checklist-for-people-with-season-allergies-related-article.jpg]
[web/jpg/breathe-right-when-we-don’t-sleep-well-our-immune-system-weakens-related-article.jpg]
[web/ease-summer-allergies.html]
[web/jpg/breathe-right-sleep-deprivation-increases-aches-and-pains-main.jpg]
[web/jpg/breathe-right-what-is-a-deviated-septum-related-article-2.jpg]
[web/jpg/breathe-right-camping-checklist-for-people-with-season-allergies-related-article-2.jpg]
[web/jpg/breathe-right-when-we-don’t-sleep-well-our-immune-system-weakens-related-article-2.jpg]
[web/sleep-deprivation-increases-aches-and-pains.html]
[web/jpg/breathe-right-why-your-air-conditioner-could-cause-stuffy-nose-main.jpg]
[web/jpg/breathe-right-what-is-a-deviated-septum-related-article-3.jpg]
[web/jpg/breathe-right-camping-checklist-for-people-with-season-allergies-related-article-3.jpg]
[web/jpg/breathe-right-when-we-don’t-sleep-well-our-immune-system-weakens-related-article-3.jpg]
[web/why-your-air-conditioner-could-cause-stuffy-nose.html]
[web/jpg/breathe-right-tips-for-fighting-back-against-nasal-congestion-in-2019-main-2.jpg]
[web/jpg/the-good-sleep-checklist.jpg]
[web/jpg/how-to-sleep-better-with-chronic-nasal-congestion-related.jpg]
[web/jpg/why-late-night-eating-can-lead-to-sleep-troubles-related.jpg]
[web/ease-congestion-tips-2019.html]
[web/sleep-deprivation-signs.html]
[web/jpg/sleeping-couple-in-bed_mobile1350.jpg]
[web/benefits-of-sleep.html]
[web/how-to-sleep-next-to-snorer.html]
[web/sleeping-with-chronic-congestion.html]
[web/sleep-during-daylight-saving.html]
[web/what-happens-when-you-lose-sleep.html]
[web/jpg/breatherightarticle01-main-2.jpg]
[web/jpg/the-good-sleep-checklist-2.jpg]
[web/jpg/why-late-night-eating-can-lead-to-sleep-troubles-related-2.jpg]
[web/jpg/how-cold-season-affects-your-sleep-related.jpg]
[web/way-to-sleep-like-a-baby-while-traveling-this-holiday-season.html]
[web/jpg/breathe-right-how-to-turn-your-stuffy-bedroom-into-a-tropical-paradise-main-2.jpg]
[web/jpg/4-relaxing-scents-for-better-sleep-related.jpg]
[web/jpg/the-science-behind-beauty-sleep.jpg]
[web/jpg/the-good-sleep-checklist-3.jpg]
[web/dyi-bedroom-tropical-paradise-tips.html]
[web/science-of-beauty-sleep.html]
[web/svg/pillow-alarm-clock-eye-mask.svg]
[web/how-to-sleep-with-pets.html]
[web/turn-your-bedroom-into-a-sleep-oasis.html]
[web/how-to-recover-from-a-bad-nights-sleep.html]
[web/how-to-sleep-on-airplane.html]
[web/natural-congestion-relief-eucalyptus-tea-2.html]
[web/jpg/breathe-right-natural-tea-may-help-soothe-congestion-main.jpg]
[web/jpg/breathe-right-thoughts-you-have-when-nighttime-nasal-congestion-is-keeping-you-awake-related.jpg]
[web/jpg/breathe-right-tips-for-fighting-back-against-nasal-congestion-in-2019-related.jpg]
[web/jpg/breathe-right-how-to-turn-your-stuffy-room-into-a-tropical-paradise-related.jpg]
[web/natural-congestion-relief-eucalyptus-tea.html]
[web/jpg/breathe-right-reasons-stuffy-nose-at-night-main.jpg]
[web/jpg/breathe-right-what-you-may-not-know-about-fall-allergies-related-article.jpg]
[web/jpg/breathe-right-raking-fall-allergy-symptoms-related-article.jpg]
[web/reasons-stuffy-nose-at-night.html]
[web/jpg/breathe-right-steps-make-dorm-room-allergy-friendly-related-article.jpg]
[web/jpg/breathe-right-how-to-sleep-on-a-plane-main.jpg]
[web/jpg/breathe-right-what-you-may-not-know-about-fall-allergies-related-article-2.jpg]
[web/jpg/breathe-right-raking-fall-allergy-symptoms-related-article-2.jpg]
[web/jpg/breathe-right-steps-make-dorm-room-allergy-friendly-related-article-2.jpg]
[web/how-to-sleep-on-a-plane.html]
[web/jpg/breathe-right-home-remedies-for-snoring-main.jpg]
[web/jpg/breathe-right-what-you-may-not-know-about-fall-allergies-related-article-3.jpg]
[web/jpg/breathe-right-raking-fall-allergy-symptoms-related-article-3.jpg]
[web/jpg/breathe-right-steps-make-dorm-room-allergy-friendly-related-article-3.jpg]
[web/home-remedies-for-snoring.html]
[web/jpg/breathe-right-better-sleep-apps-main.jpg]
[web/jpg/breathe-right-home-remedies-for-snoring-related-article.jpg]
[web/jpg/breathe-right-how-to-sleep-on-a-plane-related.jpg]
[web/jpg/breathe-right-reasons-stuffy-nose-at-night-related-article.jpg]
[web/better-sleep-apps.html]
[web/jpg/breathe-right-how-to-sleep-heat-is-on-main.jpg]
[web/jpg/breathe-right-home-remedies-for-snoring-related-article-2.jpg]
[web/jpg/breathe-right-how-to-sleep-on-a-plane-related-2.jpg]
[web/jpg/breathe-right-reasons-stuffy-nose-at-night-related-article-2.jpg]
[web/how-to-sleep-heat-is-on.html]
[web/jpg/breathe-right-stuffy-nose-remedies-main.jpg]
[web/jpg/breathe-right-home-remedies-for-snoring-related-article-3.jpg]
[web/jpg/breathe-right-how-to-sleep-on-a-plane-related-3.jpg]
[web/jpg/breathe-right-reasons-stuffy-nose-at-night-related-article-3.jpg]
[web/stuffy-nose-remedies.html]
[web/jpg/breathe-right-what-causes-snoring-pillows-main.jpg]
[web/jpg/breathe-right-home-remedies-for-snoring-related-article-4.jpg]
[web/jpg/breathe-right-how-to-sleep-on-a-plane-related-4.jpg]
[web/jpg/breathe-right-reasons-stuffy-nose-at-night-related-article-4.jpg]
[web/what-causes-snoring-pillows.html]
[web/jpg/breathe-right-steps-make-dorm-room-allergy-friendly-main.jpg]
[web/jpg/breathe-right-why-your-air-conditioner-could-cause-stuffy-nose-related-article.jpg]
[web/jpg/breathe-right-sleep-deprivation-increases-aches-and-pains-related-article.jpg]
[web/jpg/breathe-right-ease-summer-allergies-related-article.jpg]
[web/steps-make-dorm-room-allergy-friendly.html]
[web/jpg/breathe-right-raking-fall-allergy-symptoms-main.jpg]
[web/jpg/breathe-right-why-your-air-conditioner-could-cause-stuffy-nose-related-article-2.jpg]
[web/jpg/breathe-right-sleep-deprivation-increases-aches-and-pains-related-article-2.jpg]
[web/jpg/breathe-right-ease-summer-allergies-related-article-2.jpg]
[web/raking-fall-allergy-symptoms.html]
[web/jpg/breathe-right-what-you-may-not-know-about-fall-allergies-main.jpg]
[web/jpg/breathe-right-why-your-air-conditioner-could-cause-stuffy-nose-related-article-3.jpg]
[web/jpg/breathe-right-sleep-deprivation-increases-aches-and-pains-related-article-3.jpg]
[web/jpg/breathe-right-ease-summer-allergies-related-article-3.jpg]
[web/what-you-may-not-know-about-fall-allergies.html]
[web/how-to-sleep-outdoors.html]
[web/jpg/breathe-right-thoughts-you-have-when-nighttime-nasal-congestion-is-keeping-you-awake-main-2.jpg]
[web/jpg/how-to-sleep-better-with-chronic-nasal-congestion-related-2.jpg]
[web/jpg/what-you-lose-when-you-lose-sleep-related.jpg]
[web/jpg/how-cold-season-affects-your-sleep-related-2.jpg]
[web/thoughts-when-you-cant-sleep-nasal-congestion.html]
[web/jpg/breathe-right-when-we-dont-sleep-well-our-immune-system-weakens-main.jpg]
[web/jpg/breathe-right-wake-up-in-the-middle-of-the-night-with-stuffy-nose-related-article.jpg]
[web/jpg/breathe-right-spring-cleaning-allergies-related-article.jpg]
[web/jpg/breathe-right-what-is-congestion-related.jpg]
[web/when-we-dont-sleep-well-our-immune-system-weakens.html]
[web/jpg/breathe-right-camping-checklist-for-people-with-season-allergies-main.jpg]
[web/jpg/breathe-right-wake-up-in-the-middle-of-the-night-with-stuffy-nose-related-article-2.jpg]
[web/jpg/breathe-right-spring-cleaning-allergies-related-article-2.jpg]
[web/jpg/breathe-right-what-is-congestion-related-2.jpg]
[web/camping-checklist-for-people-with-season-allergies.html]
[web/jpg/breathe-right-what-is-a-deviated-septum-main.jpg]
[web/jpg/breathe-right-wake-up-in-the-middle-of-the-night-with-stuffy-nose-related-article-3.jpg]
[web/jpg/breathe-right-spring-cleaning-allergies-related-article-3.jpg]
[web/jpg/breathe-right-what-is-congestion-related-3.jpg]
[web/what-is-a-deviated-septum.html]
[web/jpg/breathe-right-spring-cleaning-allergies-main.jpg]
[web/jpg/breathe-right-can-nettle-tea-help-with-spring-allergies-related.jpg]
[web/jpg/breathe-right-what-is-congestion-related-4.jpg]
[web/jpg/breathe-right-can-you-catch-up-on-sleep-related.jpg]
[web/spring-cleaning-allergies.html]
[web/jpg/breathe-right-wake-up-in-the-middle-of-the-night-with-stuffy-nose-main.jpg]
[web/jpg/breathe-right-can-nettle-tea-help-with-spring-allergies-related-2.jpg]
[web/jpg/breathe-right-what-is-congestion-related-5.jpg]
[web/jpg/breathe-right-can-you-catch-up-on-sleep-related-2.jpg]
[web/wake-up-in-the-middle-of-the-night-with-stuffy-nose.html]
[web/jpg/breathe-right-reasons-not-sleeping-well-main.jpg]
[web/jpg/breathe-right-how-to-turn-your-stuffy-room-into-a-tropical-paradise-related-2.jpg]
[web/jpg/breathe-right-tips-for-fighting-back-against-nasal-congestion-in-2019-related-2.jpg]
[web/jpg/breathe-right-thoughts-you-have-when-nighttime-nasal-congestion-is-keeping-you-awake-related-2.jpg]
[web/reasons-not-sleeping-well.html]
[web/jpg/breathe-right-diy-spa-day-relaxation-main.jpg]
[web/jpg/breathe-right-how-to-turn-your-stuffy-room-into-a-tropical-paradise-related-3.jpg]
[web/jpg/breathe-right-tips-for-fighting-back-against-nasal-congestion-in-2019-related-3.jpg]
[web/jpg/breathe-right-thoughts-you-have-when-nighttime-nasal-congestion-is-keeping-you-awake-related-3.jpg]
[web/diy-spa-day-relaxation.html]
[web/jpg/breathe-right-undercover-ways-your-partner-is-sabotaging-your-sleep-main.jpg]
[web/jpg/breathe-right-thoughts-you-have-when-nighttime-nasal-congestion-is-keeping-you-awake-related-4.jpg]
[web/jpg/breathe-right-tips-for-fighting-back-against-nasal-congestion-in-2019-related-4.jpg]
[web/jpg/breathe-right-how-to-turn-your-stuffy-room-into-a-tropical-paradise-related-4.jpg]
[web/how-to-sleep-better-in-a-relationship.html]
[web/jpg/breathe-right-less-sleep-means-more-winter-colds-main.jpg]
[web/products1d16.html]
[web/jpg/breathe-right-thoughts-you-have-when-nighttime-nasal-congestion-is-keeping-you-awake-related-5.jpg]
[web/jpg/breathe-right-tips-for-fighting-back-against-nasal-congestion-in-2019-related-5.jpg]
[web/jpg/breathe-right-how-to-turn-your-stuffy-room-into-a-tropical-paradise-related-5.jpg]
[web/how-to-stop-colds-sleep-more.html]
[web/jpg/breathe-right-reasons-nose-feels-stuffy-in-winter-main.jpg]
[web/jpg/breathe-right-thoughts-you-have-when-nighttime-nasal-congestion-is-keeping-you-awake-related-6.jpg]
[web/jpg/breathe-right-tips-for-fighting-back-against-nasal-congestion-in-2019-related-6.jpg]
[web/jpg/breathe-right-how-to-turn-your-stuffy-room-into-a-tropical-paradise-related-6.jpg]
[web/reasons-stuffy-nose-winter.html]
[web/jpg/breathe-right-foods-and-drinks-that-make-nighttime-congestion-worse-main.jpg]
[web/jpg/breathe-right-thoughts-you-have-when-nighttime-nasal-congestion-is-keeping-you-awake-related-7.jpg]
[web/jpg/breathe-right-tips-for-fighting-back-against-nasal-congestion-in-2019-related-7.jpg]
[web/jpg/breathe-right-how-to-turn-your-stuffy-room-into-a-tropical-paradise-related-7.jpg]
[web/foods-make-congestion-worse.html]
[web/jpg/breathe-right-drug-free-remedies-for-a-good-nights-sleep-main.jpg]
[web/jpg/breathe-right-thoughts-you-have-when-nighttime-nasal-congestion-is-keeping-you-awake-related-8.jpg]
[web/jpg/breathe-right-tips-for-fighting-back-against-nasal-congestion-in-2019-related-8.jpg]
[web/jpg/breathe-right-how-to-turn-your-stuffy-room-into-a-tropical-paradise-related-8.jpg]
[web/drug-free-remedies-for-sleep.html]
[web/jpg/breathe-right-how-to-politely-talk-to-partner-about-snoring-main.jpg]
[web/jpg/breathe-right-thoughts-you-have-when-nighttime-nasal-congestion-is-keeping-you-awake-related-9.jpg]
[web/jpg/breathe-right-tips-for-fighting-back-against-nasal-congestion-in-2019-related-9.jpg]
[web/jpg/breathe-right-how-to-turn-your-stuffy-room-into-a-tropical-paradise-related-9.jpg]
[web/help-someone-stop-snoring.html]
[web/jpg/breathe-right-open-windows-seasonal-allergies-main.jpg]
[web/jpg/breathe-right-can-nettle-tea-help-with-spring-allergies-related-3.jpg]
[web/jpg/breathe-right-what-is-congestion-related-6.jpg]
[web/jpg/breathe-right-can-you-catch-up-on-sleep-related-3.jpg]
[web/open-windows-seasonal-allergies.html]
[web/jpg/illustration-of-woman-with-soap-bubbles.jpg]
[web/jpg/illustration-of breathe-right-nasal-strip.jpg]
[web/jpg/illustration-of breathe-right-nasal-strip-on-woman-nose.jpg]
[web/jpg/young-woman-applying-breathe-right-nasal-strip.jpg]
[web/jpg/mint-tea-honey-jar-sliced-apple.jpg]
[web/jpg/man-with-laughing-child.jpg]
[web/jpg/dried-lavender-flowers-and-aroma-essences.jpg]
[web/how-to-breathe-better-2.html]
[web/delayed/placeholder.19b1350.delayed]
[web/how-breathe-right-nasal-strips-work.html]
[web/jpg/young-woman-applying-breathe-right-nasal-strip_mobile1350.jpg]
[web/how-to-relieve-nasal-congestion-at-home.html]
[web/jpg/sleeping-woman-holding-sleeping-child_mobile1350.jpg]
[web/facts-about-the-human-nose.html]
[web/relaxing-scents-for-better-sleep.html]
[web/svg/facebook.svg]
[web/svg/twitter.svg]
[web/svg/hamburger.svg]
[web/svg/hamburger-closed.svg]
[web/svg/illustration-of-nasal-airway-2.svg]
[web/svg/illustration-of-person-sleeping-2.svg]
[web/svg/illustration-of breathe-right-nasal-strip-on-nose-2.svg]
[web/svg/illustration-of-sleep-checklist-2.svg]
[web/svg/youtube.svg]
[web/svg/twitter-2.svg]
[web/svg/facebook-2.svg]
[web/favicon.html]
[web/when-we-don’t-sleep-well-our-immune-system-weakens.html]
[web/jpg/woman-gray-sweater-sleeping-breathe-right-strip_mobile.jpg]
[web/png/mail.png]
[web/jpg/man-and-woman-sleeping-holding-hands.jpg]
[web/jpg/woman-with-long-hair-sleeping-in-bed.jpg]
[web/sleeping-with-chronic-congestion-2.html]
[web/natural-congestion-relief-eucalyptus-tea-2.html]
[web/products1d16.html]
[web/jpg/young-woman-applying-breathe-right-nasal-strip_mobile.jpg]
[web/jpg/illustration-of-sponge-with-soap-bubbles.jpg]
[web/jpg/illustration-of breathe-right-nasal-strip-on-nose.jpg]
[web/how-breathe-right-nasal-strips-work-2.html]
[web/placeholder1350.html]
