<?xml version="1.0" encoding="utf-8"?>
<!-- Generator: Adobe Illustrator 22.0.1, SVG Export Plug-In . SVG Version: 6.00 Build 0)  -->
<svg version="1.1" id="Layer_1" xmlns="http://www.w3.org/2000/svg" xmlns:xlink="http://www.w3.org/1999/xlink" x="0px" y="0px"
	 viewBox="0 0 25 25" style="enable-background:new 0 0 25 25;" xml:space="preserve">
<style type="text/css">
	.st0{fill:#FFFFFF;}
</style>
<path class="st0" d="M15.7,12.5h-2c0,3.2,0,7,0,7h-2.9c0,0,0-3.8,0-7H9.4V10h1.4V8.4c0-1.2,0.5-3,3-3l2.2,0v2.4c0,0-1.3,0-1.6,0
	c-0.3,0-0.6,0.1-0.6,0.7V10H16L15.7,12.5z"/>
</svg>
