<?xml version="1.0" encoding="utf-8"?>
<!-- Generator: Adobe Illustrator 22.0.1, SVG Export Plug-In . SVG Version: 6.00 Build 0)  -->
<svg version="1.1" id="Layer_1" xmlns="http://www.w3.org/2000/svg" xmlns:xlink="http://www.w3.org/1999/xlink" x="0px" y="0px"
	 viewBox="0 0 300 300" style="enable-background:new 0 0 300 300;" xml:space="preserve">
<style type="text/css">
	.st0{fill:#FFF7E2;}
	.st1{clip-path:url(#SVGID_2_);}
	.st2{fill:#FFF1CC;}
	.st3{fill:#7A5A4A;}
	.st4{fill:#F2D5C7;}
	.st5{fill:#E8C7B5;}
	.st6{fill:#F9DFD1;}
	.st7{fill:#F2D0BD;}
	.st8{fill:#F9E1D4;}
	.st9{fill:none;stroke:#AD7F69;stroke-width:5.005;stroke-linecap:round;stroke-linejoin:round;stroke-miterlimit:10;}
	.st10{fill:#8A6554;}
	.st11{fill:#7A4D39;}
	
		.st12{opacity:0.4;fill:none;stroke:#AD7F69;stroke-width:3.5518;stroke-linecap:round;stroke-linejoin:round;stroke-miterlimit:10;}
	.st13{fill:#FF9E30;}
	.st14{fill:#E37A00;}
	.st15{fill:#FFFFFF;}
	.st16{fill:#F9EAE3;}
	.st17{clip-path:url(#SVGID_4_);}
	.st18{fill:#997566;}
	.st19{fill:#B89484;}
	.st20{fill:#DBA486;}
	.st21{fill:#FFE8DB;}
	.st22{fill:url(#SVGID_5_);}
	.st23{clip-path:url(#SVGID_7_);}
	.st24{fill:#F29327;}
	.st25{fill:#F58300;}
	.st26{clip-path:url(#SVGID_9_);}
	.st27{opacity:0.5;}
	.st28{opacity:0.75;clip-path:url(#SVGID_11_);}
	.st29{fill:url(#SVGID_12_);}
	.st30{clip-path:url(#SVGID_14_);}
	.st31{clip-path:url(#SVGID_16_);}
	.st32{opacity:0.75;clip-path:url(#SVGID_18_);}
	.st33{fill:url(#SVGID_19_);}
	.st34{clip-path:url(#SVGID_21_);}
	.st35{clip-path:url(#SVGID_23_);}
	.st36{opacity:0.75;clip-path:url(#SVGID_25_);}
	.st37{fill:none;stroke:#FFFFFF;stroke-width:2.2105;stroke-linecap:round;stroke-linejoin:round;stroke-miterlimit:10;}
	.st38{fill:url(#SVGID_26_);}
	.st39{clip-path:url(#SVGID_28_);}
	.st40{clip-path:url(#SVGID_30_);}
	.st41{opacity:0.6;clip-path:url(#SVGID_32_);}
	.st42{fill:none;stroke:#FFFFFF;stroke-width:3.3157;stroke-linecap:round;stroke-linejoin:round;stroke-miterlimit:10;}
	.st43{clip-path:url(#SVGID_34_);}
	.st44{clip-path:url(#SVGID_36_);}
	.st45{fill:#F9C5A9;}
	.st46{fill:#F9D1BB;}
	.st47{fill:none;stroke:#AD7F69;stroke-width:3.4099;stroke-linecap:round;stroke-linejoin:round;stroke-miterlimit:10;}
	
		.st48{opacity:0.4;fill:none;stroke:#AD7F69;stroke-width:2.2934;stroke-linecap:round;stroke-linejoin:round;stroke-miterlimit:10;}
	.st49{fill:none;stroke:#AD7F69;stroke-width:3.2318;stroke-linecap:round;stroke-linejoin:round;stroke-miterlimit:10;}
	.st50{fill:#F08000;}
	.st51{fill:#FFC16B;}
	.st52{clip-path:url(#SVGID_38_);}
	.st53{opacity:0.6;}
	.st54{fill:#FFE4BD;}
	.st55{fill:none;stroke:#FFFFFF;stroke-width:5.5683;stroke-linecap:round;stroke-linejoin:round;stroke-miterlimit:10;}
	.st56{fill:none;stroke:#FFFFFF;stroke-width:4.1762;stroke-linecap:round;stroke-linejoin:round;stroke-miterlimit:10;}
	.st57{fill:#FFC87A;}
	.st58{fill:none;stroke:#FFFFFF;stroke-width:4.074;stroke-linecap:round;stroke-linejoin:round;stroke-miterlimit:10;}
	.st59{opacity:0.4;fill:#FFE4BD;}
	.st60{clip-path:url(#SVGID_40_);}
	.st61{fill:#F6F6F6;}
	.st62{fill:#F1F1F1;}
	.st63{fill:#CBCBCB;}
	.st64{fill:#E5E5E5;}
	.st65{fill:none;stroke:#FFD293;stroke-width:2.5864;stroke-linecap:round;stroke-linejoin:round;stroke-miterlimit:10;}
	.st66{fill:#D67300;}
	.st67{fill:#FFAF42;}
	.st68{clip-path:url(#SVGID_42_);}
	.st69{clip-path:url(#SVGID_42_);fill:#FFF1CC;}
	.st70{fill:url(#SVGID_43_);}
	.st71{fill:#FFE7C8;}
	.st72{fill:#FFD6A1;}
	.st73{opacity:0.5;fill:#FFDEBB;}
	.st74{fill:#FAAD5A;}
	.st75{fill:none;stroke:#FFFFFF;stroke-width:3.7985;stroke-linecap:round;stroke-linejoin:round;stroke-miterlimit:10;}
	.st76{clip-path:url(#SVGID_45_);}
	.st77{fill:#CBA28C;}
	.st78{clip-path:url(#SVGID_47_);}
	.st79{fill:#FFA538;}
	.st80{opacity:0.5;fill:#FABF5F;}
	.st81{fill:#BF917F;}
	.st82{fill:#C46900;}
	.st83{opacity:0.3;fill:#CBA28C;}
	.st84{clip-path:url(#SVGID_49_);}
	.st85{fill:none;stroke:#BF917F;stroke-width:6.0323;stroke-linecap:round;stroke-linejoin:round;stroke-miterlimit:10;}
	.st86{fill:url(#SVGID_50_);}
	.st87{opacity:0.3;fill:#F7BB72;}
	.st88{fill:url(#SVGID_51_);}
	.st89{fill:url(#SVGID_52_);}
	.st90{fill:url(#SVGID_53_);}
	.st91{fill:url(#SVGID_54_);}
	.st92{fill:url(#SVGID_55_);}
	.st93{opacity:0.5;fill:#F29422;}
	.st94{fill:url(#SVGID_56_);}
	.st95{fill:url(#SVGID_57_);}
	.st96{fill:url(#SVGID_58_);}
	.st97{fill:url(#SVGID_59_);}
	.st98{fill:#EB7E00;}
	.st99{fill:#CF6F00;}
	.st100{clip-path:url(#SVGID_63_);}
	.st101{fill:#FFA43D;}
	.st102{fill:#FFBE75;}
	.st103{fill:none;stroke:#BF917F;stroke-width:6.8925;stroke-linecap:round;stroke-linejoin:round;stroke-miterlimit:10;}
	.st104{fill:#E87C00;}
	.st105{fill:#FFA945;}
	.st106{fill:#FFFBF0;}
	.st107{clip-path:url(#SVGID_65_);}
	.st108{fill:none;stroke:#BF917F;stroke-width:7.8232;stroke-linecap:round;stroke-linejoin:round;stroke-miterlimit:10;}
	.st109{fill:none;stroke:#CBA28C;stroke-width:7.8232;stroke-linecap:round;stroke-linejoin:round;stroke-miterlimit:10;}
	.st110{fill:url(#SVGID_66_);}
	.st111{fill:url(#SVGID_67_);}
	.st112{fill:url(#SVGID_68_);}
	.st113{fill:url(#SVGID_69_);}
	.st114{fill:url(#SVGID_70_);}
	.st115{fill:#FFD293;}
	.st116{fill:url(#SVGID_71_);}
	.st117{fill:url(#SVGID_72_);}
	.st118{fill:url(#SVGID_73_);}
	.st119{fill:url(#SVGID_74_);}
	.st120{fill:url(#SVGID_75_);}
	.st121{fill:url(#SVGID_76_);}
	.st122{fill:url(#SVGID_77_);}
	.st123{fill:url(#SVGID_78_);}
	.st124{fill:url(#SVGID_79_);}
	.st125{fill:url(#SVGID_80_);}
	.st126{fill:url(#SVGID_81_);}
	.st127{fill:url(#SVGID_82_);}
	.st128{fill:url(#SVGID_83_);}
	.st129{fill:url(#SVGID_84_);}
	.st130{fill:url(#SVGID_85_);}
	.st131{fill:url(#SVGID_86_);}
	.st132{fill:url(#SVGID_87_);}
	.st133{fill:url(#SVGID_88_);}
	.st134{fill:url(#SVGID_89_);}
	.st135{fill:url(#SVGID_90_);}
	.st136{fill:url(#SVGID_91_);}
	.st137{fill:url(#SVGID_92_);}
	.st138{fill:url(#SVGID_93_);}
	.st139{fill:url(#SVGID_94_);}
	.st140{fill:url(#SVGID_95_);}
	.st141{fill:url(#SVGID_96_);}
	.st142{fill:url(#SVGID_97_);}
	.st143{fill:url(#SVGID_98_);}
	.st144{fill:url(#SVGID_99_);}
	.st145{fill:url(#SVGID_100_);}
	.st146{fill:url(#SVGID_101_);}
	.st147{fill:url(#SVGID_102_);}
	.st148{fill:url(#SVGID_103_);}
	.st149{clip-path:url(#SVGID_105_);}
	.st150{clip-path:url(#SVGID_107_);}
	.st151{fill:#FFE9DC;}
	.st152{fill:#E9C8B6;}
	.st153{opacity:0.3;fill:#FFE9DC;}
	.st154{fill:url(#SVGID_108_);}
	.st155{clip-path:url(#SVGID_110_);}
	.st156{fill:#FFE1CF;}
	.st157{fill:none;stroke:#DE7600;stroke-width:4.595;stroke-linecap:round;stroke-linejoin:round;}
	
		.st158{fill:none;stroke:#DE7600;stroke-width:4.595;stroke-linecap:round;stroke-linejoin:round;stroke-dasharray:12.3052,12.3052;}
	.st159{clip-path:url(#SVGID_112_);}
	.st160{fill:url(#SVGID_113_);}
	.st161{clip-path:url(#SVGID_115_);}
	.st162{fill:#F9E8DB;}
	.st163{clip-path:url(#SVGID_117_);}
	.st164{clip-path:url(#SVGID_119_);}
	.st165{fill:none;stroke:#FFFFFF;stroke-width:6.5758;stroke-linecap:round;stroke-linejoin:round;stroke-miterlimit:10;}
	.st166{fill:none;stroke:#FFFFFF;stroke-width:4.9318;stroke-linecap:round;stroke-linejoin:round;stroke-miterlimit:10;}
	.st167{clip-path:url(#SVGID_121_);}
	.st168{clip-path:url(#SVGID_123_);}
	.st169{fill:#C47C5E;}
	.st170{fill:#FFBB6E;}
	.st171{opacity:0.6;fill:#F08000;}
	.st172{opacity:0.5;fill:#FFBB6E;}
	.st173{fill:#B0694B;}
	.st174{fill:#FFDBB3;}
	.st175{opacity:0.4;}
	.st176{fill:#F9CDA9;}
	.st177{fill:#F9BF90;}
	.st178{opacity:0.4;fill:#FFFBF0;}
	.st179{fill:none;stroke:#9B6A57;stroke-width:4.7126;stroke-linecap:round;stroke-linejoin:round;stroke-miterlimit:10;}
	.st180{opacity:0.3;fill:#FFCF9F;}
	.st181{fill:none;stroke:#9B6A57;stroke-width:4.713;stroke-linecap:round;stroke-linejoin:round;stroke-miterlimit:10;}
	.st182{fill:#755547;}
	.st183{fill:#AD7F69;}
	.st184{fill:#EAC5B5;}
	.st185{fill:none;stroke:#635651;stroke-width:2.5346;stroke-linecap:round;stroke-linejoin:round;stroke-miterlimit:10;}
	.st186{fill:none;stroke:#734F40;stroke-width:3.3794;stroke-linecap:round;stroke-linejoin:round;stroke-miterlimit:10;}
	.st187{fill:#D8AB9C;}
	.st188{fill:#FFEEE6;}
	.st189{opacity:0.25;fill:#FFDBB3;}
	.st190{fill:#FFCF9F;}
	.st191{fill:url(#SVGID_124_);}
	.st192{clip-path:url(#SVGID_126_);}
	
		.st193{fill:none;stroke:#DE7600;stroke-width:4.595;stroke-linecap:round;stroke-linejoin:round;stroke-dasharray:13.4097,13.4097;}
	
		.st194{fill:none;stroke:#F7BB72;stroke-width:2.2975;stroke-linecap:round;stroke-linejoin:round;stroke-miterlimit:10;stroke-dasharray:12.8342;}
	.st195{fill:none;stroke:#B89484;stroke-width:3.4463;stroke-linecap:round;stroke-linejoin:round;stroke-miterlimit:10;}
	.st196{clip-path:url(#SVGID_128_);}
	.st197{clip-path:url(#SVGID_130_);fill:#F29327;}
	.st198{clip-path:url(#SVGID_130_);}
	.st199{fill:none;stroke:#AD7F69;stroke-width:3.4463;stroke-linecap:round;stroke-linejoin:round;stroke-miterlimit:10;}
	.st200{clip-path:url(#SVGID_130_);fill:#AD7F69;}
	.st201{fill:#AB5C00;}
	.st202{fill:url(#SVGID_131_);}
	.st203{fill:#F78D2F;}
	.st204{fill:none;stroke:#BF917F;stroke-width:7.1447;stroke-linecap:round;stroke-linejoin:round;stroke-miterlimit:10;}
	.st205{fill:#EB6A00;}
	.st206{fill:#FCCD81;}
	.st207{fill:url(#SVGID_132_);}
	.st208{fill:url(#SVGID_133_);}
	.st209{fill:url(#SVGID_134_);}
	.st210{fill:url(#SVGID_135_);}
	.st211{fill:url(#SVGID_136_);}
	.st212{fill:url(#SVGID_137_);}
	.st213{fill:#FCE2B5;}
	.st214{fill:url(#SVGID_138_);}
	.st215{fill:url(#SVGID_139_);}
	.st216{fill:url(#SVGID_140_);}
	.st217{fill:url(#SVGID_141_);}
	.st218{fill:url(#SVGID_142_);}
	.st219{fill:url(#SVGID_143_);}
	.st220{fill:url(#SVGID_144_);}
	.st221{fill:url(#SVGID_145_);}
	.st222{fill:url(#SVGID_146_);}
	.st223{fill:url(#SVGID_147_);}
	.st224{fill:url(#SVGID_148_);}
	.st225{fill:url(#SVGID_149_);}
	.st226{fill:#FABF5F;}
	.st227{fill:url(#SVGID_150_);}
	.st228{fill:url(#SVGID_151_);}
	.st229{fill:url(#SVGID_152_);}
	.st230{fill:url(#SVGID_153_);}
	.st231{fill:url(#SVGID_154_);}
	.st232{fill:url(#SVGID_155_);}
	.st233{fill:url(#SVGID_156_);}
	.st234{fill:url(#SVGID_157_);}
	.st235{fill:url(#SVGID_158_);}
	.st236{fill:url(#SVGID_159_);}
	.st237{fill:url(#SVGID_160_);}
	.st238{fill:#FCD79A;}
	.st239{fill:#F9D3BD;}
	.st240{fill:#EAAB8F;}
	.st241{fill:none;stroke:#9B6A57;stroke-width:4.7074;stroke-linecap:round;stroke-linejoin:round;stroke-miterlimit:10;}
	.st242{opacity:0.5;fill:#EAAB8F;}
	.st243{fill:none;stroke:#9B6A57;stroke-width:4.7077;stroke-linecap:round;stroke-linejoin:round;stroke-miterlimit:10;}
	.st244{fill:none;stroke:#635651;stroke-width:2.5318;stroke-linecap:round;stroke-linejoin:round;stroke-miterlimit:10;}
	.st245{fill:none;stroke:#734F40;stroke-width:3.3757;stroke-linecap:round;stroke-linejoin:round;stroke-miterlimit:10;}
	.st246{fill:none;stroke:#FFFFFF;stroke-width:5.4588;stroke-linecap:round;stroke-linejoin:round;stroke-miterlimit:10;}
	.st247{fill:none;stroke:#FFFFFF;stroke-width:4.0941;stroke-linecap:round;stroke-linejoin:round;stroke-miterlimit:10;}
	.st248{fill:none;stroke:#FFFFFF;stroke-width:4.117;stroke-linecap:round;stroke-linejoin:round;stroke-miterlimit:10;}
	.st249{fill:none;stroke:#FF9E30;stroke-width:4.6605;stroke-linecap:round;stroke-linejoin:round;stroke-miterlimit:10;}
	.st250{opacity:0.15;fill:#FFEBB3;}
	.st251{opacity:0.2;fill:#FFEBB3;}
	.st252{opacity:0.8;fill:url(#SVGID_161_);}
	.st253{fill:#E0B9A4;}
	.st254{clip-path:url(#SVGID_163_);}
	.st255{fill:none;stroke:#BF917F;stroke-width:6.6928;stroke-linecap:round;stroke-linejoin:round;stroke-miterlimit:10;}
	.st256{fill:url(#SVGID_164_);}
	.st257{fill:url(#SVGID_165_);}
	.st258{fill:url(#SVGID_166_);}
	.st259{fill:url(#SVGID_167_);}
	.st260{fill:url(#SVGID_168_);}
	.st261{fill:url(#SVGID_169_);}
	.st262{fill:url(#SVGID_170_);}
	.st263{fill:url(#SVGID_171_);}
	.st264{fill:url(#SVGID_172_);}
	.st265{fill:url(#SVGID_173_);}
	.st266{fill:url(#SVGID_174_);}
	.st267{fill:url(#SVGID_175_);}
	.st268{fill:url(#SVGID_176_);}
	.st269{fill:url(#SVGID_177_);}
	.st270{fill:url(#SVGID_178_);}
	.st271{fill:url(#SVGID_179_);}
	.st272{fill:url(#SVGID_180_);}
	.st273{fill:url(#SVGID_181_);}
	.st274{fill:url(#SVGID_182_);}
	.st275{fill:url(#SVGID_183_);}
	.st276{fill:url(#SVGID_184_);}
	.st277{fill:url(#SVGID_185_);}
	.st278{fill:url(#SVGID_186_);}
	.st279{fill:url(#SVGID_187_);}
	.st280{fill:url(#SVGID_188_);}
	.st281{fill:url(#SVGID_189_);}
	.st282{fill:url(#SVGID_190_);}
	.st283{fill:url(#SVGID_191_);}
	.st284{fill:url(#SVGID_192_);}
</style>
<g>
	<g>
		<path class="st0" d="M242,214.9c-74,85.2-199.2,48.6-213.4-28.5c-11.6-62.8,23-108.9,65.4-136.6c25.2-16.5,94.8-21.9,141.2,5.8
			C284.1,84.8,286.1,164.1,242,214.9z"/>
		<g>
			<defs>
				<path id="SVGID_33_" d="M242,214.9c-74,85.2-199.2,48.6-213.4-28.5c-11.6-62.8,23-108.9,65.4-136.6
					c25.2-16.5,94.8-21.9,141.2,5.8C284.1,84.8,286.1,164.1,242,214.9z"/>
			</defs>
			<clipPath id="SVGID_2_">
				<use xlink:href="#SVGID_33_"  style="overflow:visible;"/>
			</clipPath>
			<g class="st1">
				<g>
					<path class="st2" d="M64.9,94.9c4.6-4.6,10.1,4.1,10.9,3.6c22.2-15,130.7-16.3,156-0.4c1.1,0.7,6.9-7.7,11.5-3.1
						c4.6,4.6-3.8,10-3.2,10.9c15.9,22.1,14.4,95.3-0.4,115.6c-0.6,0.8,8.3,5.6,3.6,10.3c-4.7,4.7-9.4-4.4-10.1-3.9
						c-22.2,15.1-131.3,18.1-157.3,0.7c-1-0.7-6.5,7.8-11,3.2c-4.6-4.6,4-9.7,3.4-10.4c-17.6-22.6-14.4-95.4-0.2-115.5
						C68.7,105,60.3,99.4,64.9,94.9z"/>
					<path class="st2" d="M65.6,95.6c4.6-4.6,10.1,4.1,10.9,3.6c22.2-15,130.7-16.3,156-0.4c1.1,0.7,6.9-7.7,11.5-3.1
						c4.6,4.6-3.8,10-3.2,10.9c15.9,22.1,14.4,95.3-0.4,115.6c-0.6,0.8,8.3,5.6,3.6,10.3c-4.7,4.7-9.4-4.4-10.1-3.9
						c-22.2,15.1-131.3,18.1-157.3,0.7c-1-0.7-6.5,7.8-11,3.2c-4.6-4.6,4-9.7,3.4-10.4c-17.6-22.6-14.4-95.4-0.2-115.5
						C69.4,105.7,61,100.1,65.6,95.6z"/>
					<path class="st2" d="M66.3,96.3c4.6-4.6,10.1,4.1,10.9,3.6c22.2-15,130.7-16.3,156-0.4c1.1,0.7,6.9-7.7,11.5-3.1
						s-3.8,10-3.2,10.9c15.9,22.1,14.4,95.3-0.4,115.6c-0.6,0.8,8.3,5.6,3.6,10.3c-4.7,4.7-9.4-4.4-10.1-3.9
						c-22.2,15.1-131.3,18.1-157.3,0.7c-1-0.7-6.5,7.8-11,3.2c-4.6-4.6,4-9.7,3.4-10.4c-17.6-22.6-14.4-95.4-0.2-115.5
						C70.1,106.4,61.7,100.8,66.3,96.3z"/>
					<path class="st2" d="M67,97c4.6-4.6,10.1,4.1,10.9,3.6c22.2-15,130.7-16.3,156-0.4c1.1,0.7,6.9-7.7,11.5-3.1
						c4.6,4.6-3.8,10-3.2,10.9c15.9,22.1,14.4,95.3-0.4,115.6c-0.6,0.8,8.3,5.6,3.6,10.3c-4.7,4.7-9.4-4.4-10.1-3.9
						C213,245.1,103.9,248.1,78,230.6c-1-0.7-6.5,7.8-11,3.2c-4.6-4.6,4-9.7,3.4-10.4C52.8,200.9,56,128.1,70.2,108
						C70.8,107.1,62.4,101.5,67,97z"/>
					<path class="st2" d="M67.7,97.7c4.6-4.6,10.1,4.1,10.9,3.6c22.2-15,130.7-16.3,156-0.4c1.1,0.7,6.9-7.7,11.5-3.1
						c4.6,4.6-3.8,10-3.2,10.9c15.9,22.1,14.4,95.3-0.4,115.6c-0.6,0.8,8.3,5.6,3.6,10.3c-4.7,4.7-9.4-4.4-10.1-3.9
						c-22.2,15.1-131.3,18.1-157.3,0.7c-1-0.7-6.5,7.8-11,3.2c-4.6-4.6,4-9.7,3.4-10.4c-17.6-22.6-14.4-95.4-0.2-115.5
						C71.5,107.8,63.1,102.3,67.7,97.7z"/>
					<path class="st2" d="M68.4,98.4c4.6-4.6,10.1,4.1,10.9,3.6c22.2-15,130.7-16.3,156-0.4c1.1,0.7,6.9-7.7,11.5-3.1
						s-3.8,10-3.2,10.9c15.9,22.1,14.4,95.3-0.4,115.6c-0.6,0.8,8.3,5.6,3.6,10.3c-4.7,4.7-9.4-4.4-10.1-3.9
						c-22.2,15.1-131.3,18.1-157.3,0.7c-1-0.7-6.5,7.8-11,3.2c-4.6-4.6,4-9.7,3.4-10.4c-17.6-22.6-14.4-95.4-0.2-115.5
						C72.2,108.5,63.8,103,68.4,98.4z"/>
					<path class="st2" d="M69.1,99.1c4.6-4.6,10.1,4.1,10.9,3.6c22.2-15,130.7-16.3,156-0.4c1.1,0.7,6.9-7.7,11.5-3.1
						c4.6,4.6-3.8,10-3.2,10.9c15.9,22.1,14.4,95.3-0.4,115.6c-0.6,0.8,8.3,5.6,3.6,10.3c-4.7,4.7-9.4-4.4-10.1-3.9
						c-22.2,15.1-131.3,18.1-157.3,0.7c-1-0.7-6.5,7.8-11,3.2c-4.6-4.6,4-9.7,3.4-10.4c-17.6-22.6-14.4-95.4-0.2-115.5
						C72.9,109.3,64.5,103.7,69.1,99.1z"/>
					<path class="st2" d="M69.8,99.8c4.6-4.6,10.1,4.1,10.9,3.6c22.2-15,130.7-16.3,156-0.4c1.1,0.7,6.9-7.7,11.5-3.1
						c4.6,4.6-3.8,10-3.2,10.9c15.9,22.1,14.4,95.3-0.4,115.6c-0.6,0.8,8.3,5.6,3.6,10.3c-4.7,4.7-9.4-4.4-10.1-3.9
						c-22.2,15.1-131.3,18.1-157.3,0.7c-1-0.7-6.5,7.8-11,3.2c-4.6-4.6,4-9.7,3.4-10.4c-17.6-22.6-14.4-95.4-0.2-115.5
						C73.7,110,65.2,104.4,69.8,99.8z"/>
					<path class="st2" d="M70.5,100.5c4.6-4.6,10.1,4.1,10.9,3.6c22.2-15,130.7-16.3,156-0.4c1.1,0.7,6.9-7.7,11.5-3.1
						s-3.8,10-3.2,10.9c15.9,22.1,14.4,95.3-0.4,115.6c-0.6,0.8,8.3,5.6,3.6,10.3c-4.7,4.7-9.4-4.4-10.1-3.9
						c-22.2,15.1-131.3,18.1-157.3,0.7c-1-0.7-6.5,7.8-11,3.2c-4.6-4.6,4-9.7,3.4-10.4c-17.6-22.6-14.4-95.4-0.2-115.5
						C74.4,110.7,66,105.1,70.5,100.5z"/>
					<path class="st2" d="M71.2,101.2c4.6-4.6,10.1,4.1,10.9,3.6c22.2-15,130.7-16.3,156-0.4c1.1,0.7,6.9-7.7,11.5-3.1
						c4.6,4.6-3.8,10-3.2,10.9c15.9,22.1,14.4,95.3-0.4,115.6c-0.6,0.8,8.3,5.6,3.6,10.3c-4.7,4.7-9.4-4.4-10.1-3.9
						c-22.2,15.1-131.3,18.1-157.3,0.7c-1-0.7-6.5,7.8-11,3.2c-4.6-4.6,4-9.7,3.4-10.4c-17.6-22.6-14.4-95.4-0.2-115.5
						C75.1,111.4,66.7,105.8,71.2,101.2z"/>
					<path class="st2" d="M71.9,101.9c4.6-4.6,10.1,4.1,10.9,3.6c22.2-15,130.7-16.3,156-0.4c1.1,0.7,6.9-7.7,11.5-3.1
						c4.6,4.6-3.8,10-3.2,10.9c15.9,22.1,14.4,95.3-0.4,115.6c-0.6,0.8,8.3,5.6,3.6,10.3c-4.7,4.7-9.4-4.4-10.1-3.9
						C218,250.1,108.9,253,83,235.6c-1-0.7-6.5,7.8-11,3.2c-4.6-4.6,4-9.7,3.4-10.4c-17.6-22.6-14.4-95.4-0.2-115.5
						C75.8,112.1,67.4,106.5,71.9,101.9z"/>
					<path class="st2" d="M72.6,102.6c4.6-4.6,10.1,4.1,10.9,3.6c22.2-15,130.7-16.3,156-0.4c1.1,0.7,6.9-7.7,11.5-3.1
						s-3.8,10-3.2,10.9c15.9,22.1,14.4,95.3-0.4,115.6c-0.6,0.8,8.3,5.6,3.6,10.3c-4.7,4.7-9.4-4.4-10.1-3.9
						c-22.2,15.1-131.3,18.1-157.3,0.7c-1-0.7-6.5,7.8-11,3.2c-4.6-4.6,4-9.7,3.4-10.4c-17.6-22.6-14.4-95.4-0.2-115.5
						C76.5,112.8,68.1,107.2,72.6,102.6z"/>
					<path class="st2" d="M73.3,103.4c4.6-4.6,10.1,4.1,10.9,3.6c22.2-15,130.7-16.3,156-0.4c1.1,0.7,6.9-7.7,11.5-3.1
						c4.6,4.6-3.8,10-3.2,10.9c15.9,22.1,14.4,95.3-0.4,115.6c-0.6,0.8,8.3,5.6,3.6,10.3c-4.7,4.7-9.4-4.4-10.1-3.9
						c-22.2,15.1-131.3,18.1-157.3,0.7c-1-0.7-6.5,7.8-11,3.2c-4.6-4.6,4-9.7,3.4-10.4c-17.6-22.6-14.4-95.4-0.2-115.5
						C77.2,113.5,68.8,107.9,73.3,103.4z"/>
					<path class="st2" d="M74,104.1c4.6-4.6,10.1,4.1,10.9,3.6c22.2-15,130.7-16.3,156-0.4c1.1,0.7,6.9-7.7,11.5-3.1
						c4.6,4.6-3.8,10-3.2,10.9c15.9,22.1,14.4,95.3-0.4,115.6c-0.6,0.8,8.3,5.6,3.6,10.3c-4.7,4.7-9.4-4.4-10.1-3.9
						c-22.2,15.1-131.3,18.1-157.3,0.7c-1-0.7-6.5,7.8-11,3.2c-4.6-4.6,4-9.7,3.4-10.4C59.9,208,63,135.2,77.3,115.1
						C77.9,114.2,69.5,108.6,74,104.1z"/>
					<path class="st2" d="M74.8,104.8c4.6-4.6,10.1,4.1,10.9,3.6c22.2-15,130.7-16.3,156-0.4c1.1,0.7,6.9-7.7,11.5-3.1
						s-3.8,10-3.2,10.9c15.9,22.1,14.4,95.3-0.4,115.6c-0.6,0.8,8.3,5.6,3.6,10.3c-4.7,4.7-9.4-4.4-10.1-3.9
						c-22.2,15.1-131.3,18.1-157.3,0.7c-1-0.7-6.5,7.8-11,3.2c-4.6-4.6,4-9.7,3.4-10.4c-17.6-22.6-14.4-95.4-0.2-115.5
						C78.6,114.9,70.2,109.3,74.8,104.8z"/>
					<path class="st2" d="M75.5,105.5c4.6-4.6,10.1,4.1,10.9,3.6c22.2-15,130.7-16.3,156-0.4c1.1,0.7,6.9-7.7,11.5-3.1
						s-3.8,10-3.2,10.9c15.9,22.1,14.4,95.3-0.4,115.6c-0.6,0.8,8.3,5.6,3.6,10.3c-4.7,4.7-9.4-4.4-10.1-3.9
						c-22.2,15.1-131.3,18.1-157.3,0.7c-1-0.7-6.5,7.8-11,3.2c-4.6-4.6,4-9.7,3.4-10.4c-17.6-22.6-14.4-95.4-0.2-115.5
						C79.3,115.6,70.9,110,75.5,105.5z"/>
					<path class="st2" d="M76.2,106.2c4.6-4.6,10.1,4.1,10.9,3.6c22.2-15,130.7-16.3,156-0.4c1.1,0.7,6.9-7.7,11.5-3.1
						s-3.8,10-3.2,10.9c15.9,22.1,14.4,95.3-0.4,115.6c-0.6,0.8,8.3,5.6,3.6,10.3c-4.7,4.7-9.4-4.4-10.1-3.9
						c-22.2,15.1-131.3,18.1-157.3,0.7c-1-0.7-6.5,7.8-11,3.2c-4.6-4.6,4-9.7,3.4-10.4c-17.6-22.6-14.4-95.4-0.2-115.5
						C80,116.3,71.6,110.7,76.2,106.2z"/>
					<path class="st2" d="M76.9,106.9c4.6-4.6,10.1,4.1,10.9,3.6c22.2-15,130.7-16.3,156-0.4c1.1,0.7,6.9-7.7,11.5-3.1
						c4.6,4.6-3.8,10-3.2,10.9c15.9,22.1,14.4,95.3-0.4,115.6c-0.6,0.8,8.3,5.6,3.6,10.3s-9.4-4.4-10.1-3.9
						C222.9,255,113.8,258,87.9,240.5c-1-0.7-6.5,7.8-11,3.2s4-9.7,3.4-10.4c-17.6-22.6-14.4-95.4-0.2-115.5
						C80.7,117,72.3,111.5,76.9,106.9z"/>
					<path class="st2" d="M77.6,107.6c4.6-4.6,10.1,4.1,10.9,3.6c22.2-15,130.7-16.3,156-0.4c1.1,0.7,6.9-7.7,11.5-3.1
						c4.6,4.6-3.8,10-3.2,10.9c15.9,22.1,14.4,95.3-0.4,115.6c-0.6,0.8,8.3,5.6,3.6,10.3c-4.7,4.7-9.4-4.4-10.1-3.9
						c-22.2,15.1-131.3,18.1-157.3,0.7c-1-0.7-6.5,7.8-11,3.2c-4.6-4.6,4-9.7,3.4-10.4c-17.6-22.6-14.4-95.4-0.2-115.5
						C81.4,117.7,73,112.2,77.6,107.6z"/>
					<path class="st2" d="M78.3,108.3c4.6-4.6,10.1,4.1,10.9,3.6c22.2-15,130.7-16.3,156-0.4c1.1,0.7,6.9-7.7,11.5-3.1
						c4.6,4.6-3.8,10-3.2,10.9c15.9,22.1,14.4,95.3-0.4,115.6c-0.6,0.8,8.3,5.6,3.6,10.3c-4.7,4.7-9.4-4.4-10.1-3.9
						c-22.2,15.1-131.3,18.1-157.3,0.7c-1-0.7-6.5,7.8-11,3.2c-4.6-4.6,4-9.7,3.4-10.4c-17.6-22.6-14.4-95.4-0.2-115.5
						C82.1,118.5,73.7,112.9,78.3,108.3z"/>
					<path class="st2" d="M79,109c4.6-4.6,10.1,4.1,10.9,3.6c22.2-15,130.7-16.3,156-0.4c1.1,0.7,6.9-7.7,11.5-3.1s-3.8,10-3.2,10.9
						c15.9,22.1,14.4,95.3-0.4,115.6c-0.6,0.8,8.3,5.6,3.6,10.3c-4.7,4.7-9.4-4.4-10.1-3.9C225.1,257.1,116,260.1,90,242.7
						c-1-0.7-6.5,7.8-11,3.2c-4.6-4.6,4-9.7,3.4-10.4C64.8,212.9,68,140.1,82.3,120C82.9,119.2,74.4,113.6,79,109z"/>
					<path class="st2" d="M79.7,109.7c4.6-4.6,10.1,4.1,10.9,3.6c22.2-15,130.7-16.3,156-0.4c1.1,0.7,6.9-7.7,11.5-3.1
						s-3.8,10-3.2,10.9c15.9,22.1,14.4,95.3-0.4,115.6c-0.6,0.8,8.3,5.6,3.6,10.3c-4.7,4.7-9.4-4.4-10.1-3.9
						c-22.2,15.1-131.3,18.1-157.3,0.7c-1-0.7-6.5,7.8-11,3.2c-4.6-4.6,4-9.7,3.4-10.4c-17.6-22.6-14.4-95.4-0.2-115.5
						C83.6,119.9,75.1,114.3,79.7,109.7z"/>
					<path class="st2" d="M80.4,110.4c4.6-4.6,10.1,4.1,10.9,3.6c22.2-15,130.7-16.3,156-0.4c1.1,0.7,6.9-7.7,11.5-3.1
						c4.6,4.6-3.8,10-3.2,10.9c15.9,22.1,14.4,95.3-0.4,115.6c-0.6,0.8,8.3,5.6,3.6,10.3c-4.7,4.7-9.4-4.4-10.1-3.9
						c-22.2,15.1-131.3,18.1-157.3,0.7c-1-0.7-6.5,7.8-11,3.2c-4.6-4.6,4-9.7,3.4-10.4c-17.6-22.6-14.4-95.4-0.2-115.5
						C84.3,120.6,75.9,115,80.4,110.4z"/>
					<path class="st2" d="M81.1,111.1c4.6-4.6,10.1,4.1,10.9,3.6c22.2-15,130.7-16.3,156-0.4c1.1,0.7,6.9-7.7,11.5-3.1
						c4.6,4.6-3.8,10-3.2,10.9c15.9,22.1,14.4,95.3-0.4,115.6c-0.6,0.8,8.3,5.6,3.6,10.3c-4.7,4.7-9.4-4.4-10.1-3.9
						c-22.2,15.1-131.3,18.1-157.3,0.7c-1-0.7-6.5,7.8-11,3.2c-4.6-4.6,4-9.7,3.4-10.4c-17.6-22.6-14.4-95.4-0.2-115.5
						C85,121.3,76.6,115.7,81.1,111.1z"/>
					<path class="st2" d="M81.8,111.8c4.6-4.6,10.1,4.1,10.9,3.6c22.2-15,130.7-16.3,156-0.4c1.1,0.7,6.9-7.7,11.5-3.1
						c4.6,4.6-3.8,10-3.2,10.9c15.9,22.1,14.4,95.3-0.4,115.6c-0.6,0.8,8.3,5.6,3.6,10.3c-4.7,4.7-9.4-4.4-10.1-3.9
						c-22.2,15.1-131.3,18.1-157.3,0.7c-1-0.7-6.5,7.8-11,3.2c-4.6-4.6,4-9.7,3.4-10.4c-17.6-22.6-14.4-95.4-0.2-115.5
						C85.7,122,77.3,116.4,81.8,111.8z"/>
					<path class="st2" d="M82.5,112.6c4.6-4.6,10.1,4.1,10.9,3.6c22.2-15,130.7-16.3,156-0.4c1.1,0.7,6.9-7.7,11.5-3.1
						c4.6,4.6-3.8,10-3.2,10.9c15.9,22.1,14.4,95.3-0.4,115.6c-0.6,0.8,8.3,5.6,3.6,10.3c-4.7,4.7-9.4-4.4-10.1-3.9
						c-22.2,15.1-131.3,18.1-157.3,0.7c-1-0.7-6.5,7.8-11,3.2c-4.6-4.6,4-9.7,3.4-10.4c-17.6-22.6-14.4-95.4-0.2-115.5
						C86.4,122.7,78,117.1,82.5,112.6z"/>
					<path class="st2" d="M83.2,113.3c4.6-4.6,10.1,4.1,10.9,3.6c22.2-15,130.7-16.3,156-0.4c1.1,0.7,6.9-7.7,11.5-3.1
						s-3.8,10-3.2,10.9c15.9,22.1,14.4,95.3-0.4,115.6c-0.6,0.8,8.3,5.6,3.6,10.3c-4.7,4.7-9.4-4.4-10.1-3.9
						c-22.2,15.1-131.3,18.1-157.3,0.7c-1-0.7-6.5,7.8-11,3.2c-4.6-4.6,4-9.7,3.4-10.4c-17.6-22.6-14.4-95.4-0.2-115.5
						C87.1,123.4,78.7,117.8,83.2,113.3z"/>
					<path class="st2" d="M84,114c4.6-4.6,10.1,4.1,10.9,3.6c22.2-15,130.7-16.3,156-0.4c1.1,0.7,6.9-7.7,11.5-3.1s-3.8,10-3.2,10.9
						c15.9,22.1,14.4,95.3-0.4,115.6c-0.6,0.8,8.3,5.6,3.6,10.3c-4.7,4.7-9.4-4.4-10.1-3.9C230,262.1,120.9,265.1,95,247.6
						c-1-0.7-6.5,7.8-11,3.2c-4.6-4.6,4-9.7,3.4-10.4C69.8,217.9,73,145.1,87.2,125C87.8,124.1,79.4,118.5,84,114z"/>
					<path class="st2" d="M84.7,114.7c4.6-4.6,10.1,4.1,10.9,3.6c22.2-15,130.7-16.3,156-0.4c1.1,0.7,6.9-7.7,11.5-3.1
						c4.6,4.6-3.8,10-3.2,10.9c15.9,22.1,14.4,95.3-0.4,115.6c-0.6,0.8,8.3,5.6,3.6,10.3c-4.7,4.7-9.4-4.4-10.1-3.9
						c-22.2,15.1-131.3,18.1-157.3,0.7c-1-0.7-6.5,7.8-11,3.2s4-9.7,3.4-10.4c-17.6-22.6-14.4-95.4-0.2-115.5
						C88.5,124.8,80.1,119.2,84.7,114.7z"/>
					<path class="st2" d="M85.4,115.4c4.6-4.6,10.1,4.1,10.9,3.6c22.2-15,130.7-16.3,156-0.4c1.1,0.7,6.9-7.7,11.5-3.1
						c4.6,4.6-3.8,10-3.2,10.9c15.9,22.1,14.4,95.3-0.4,115.6c-0.6,0.8,8.3,5.6,3.6,10.3c-4.7,4.7-9.4-4.4-10.1-3.9
						c-22.2,15.1-131.3,18.1-157.3,0.7c-1-0.7-6.5,7.8-11,3.2c-4.6-4.6,4-9.7,3.4-10.4c-17.6-22.6-14.4-95.4-0.2-115.5
						C89.2,125.5,80.8,119.9,85.4,115.4z"/>
					<path class="st2" d="M86.1,116.1c4.6-4.6,10.1,4.1,10.9,3.6c22.2-15,130.7-16.3,156-0.4c1.1,0.7,6.9-7.7,11.5-3.1
						s-3.8,10-3.2,10.9c15.9,22.1,14.4,95.3-0.4,115.6c-0.6,0.8,8.3,5.6,3.6,10.3c-4.7,4.7-9.4-4.4-10.1-3.9
						c-22.2,15.1-131.3,18.1-157.3,0.7c-1-0.7-6.5,7.8-11,3.2c-4.6-4.6,4-9.7,3.4-10.4c-17.6-22.6-14.4-95.4-0.2-115.5
						C89.9,126.2,81.5,120.7,86.1,116.1z"/>
					<path class="st2" d="M86.8,116.8c4.6-4.6,10.1,4.1,10.9,3.6c22.2-15,130.7-16.3,156-0.4c1.1,0.7,6.9-7.7,11.5-3.1
						c4.6,4.6-3.8,10-3.2,10.9c15.9,22.1,14.4,95.3-0.4,115.6c-0.6,0.8,8.3,5.6,3.6,10.3c-4.7,4.7-9.4-4.4-10.1-3.9
						c-22.2,15.1-131.3,18.1-157.3,0.7c-1-0.7-6.5,7.8-11,3.2c-4.6-4.6,4-9.7,3.4-10.4c-17.6-22.6-14.4-95.4-0.2-115.5
						C90.6,126.9,82.2,121.4,86.8,116.8z"/>
					<path class="st2" d="M87.5,117.5c4.6-4.6,10.1,4.1,10.9,3.6c22.2-15,130.7-16.3,156-0.4c1.1,0.7,6.9-7.7,11.5-3.1
						s-3.8,10-3.2,10.9c15.9,22.1,14.4,95.3-0.4,115.6c-0.6,0.8,8.3,5.6,3.6,10.3s-9.4-4.4-10.1-3.9
						c-22.2,15.1-131.3,18.1-157.3,0.7c-1-0.7-6.5,7.8-11,3.2s4-9.7,3.4-10.4c-17.6-22.6-14.4-95.4-0.2-115.5
						C91.3,127.7,82.9,122.1,87.5,117.5z"/>
					<path class="st2" d="M88.2,118.2c4.6-4.6,10.1,4.1,10.9,3.6c22.2-15,130.7-16.3,156-0.4c1.1,0.7,6.9-7.7,11.5-3.1
						s-3.8,10-3.2,10.9c15.9,22.1,14.4,95.3-0.4,115.6c-0.6,0.8,8.3,5.6,3.6,10.3c-4.7,4.7-9.4-4.4-10.1-3.9
						c-22.2,15.1-131.3,18.1-157.3,0.7c-1-0.7-6.5,7.8-11,3.2s4-9.7,3.4-10.4c-17.6-22.6-14.4-95.4-0.2-115.5
						C92.1,128.4,83.6,122.8,88.2,118.2z"/>
					<path class="st2" d="M88.9,118.9c4.6-4.6,10.1,4.1,10.9,3.6c22.2-15,130.7-16.3,156-0.4c1.1,0.7,6.9-7.7,11.5-3.1
						c4.6,4.6-3.8,10-3.2,10.9c15.9,22.1,14.4,95.3-0.4,115.6c-0.6,0.8,8.3,5.6,3.6,10.3c-4.7,4.7-9.4-4.4-10.1-3.9
						C235,267,125.9,270,99.9,252.6c-1-0.7-6.5,7.8-11,3.2s4-9.7,3.4-10.4c-17.6-22.6-14.4-95.4-0.2-115.5
						C92.8,129.1,84.3,123.5,88.9,118.9z"/>
					<path class="st2" d="M89.6,119.6c4.6-4.6,10.1,4.1,10.9,3.6c22.2-15,130.7-16.3,156-0.4c1.1,0.7,6.9-7.7,11.5-3.1
						c4.6,4.6-3.8,10-3.2,10.9c15.9,22.1,14.4,95.3-0.4,115.6c-0.6,0.8,8.3,5.6,3.6,10.3c-4.7,4.7-9.4-4.4-10.1-3.9
						c-22.2,15.1-131.3,18.1-157.3,0.7c-1-0.7-6.5,7.8-11,3.2c-4.6-4.6,4-9.7,3.4-10.4c-17.6-22.6-14.4-95.4-0.2-115.5
						C93.5,129.8,85.1,124.2,89.6,119.6z"/>
					<path class="st2" d="M90.3,120.3c4.6-4.6,10.1,4.1,10.9,3.6c22.2-15,130.7-16.3,156-0.4c1.1,0.7,6.9-7.7,11.5-3.1
						s-3.8,10-3.2,10.9c15.9,22.1,14.4,95.3-0.4,115.6c-0.6,0.8,8.3,5.6,3.6,10.3c-4.7,4.7-9.4-4.4-10.1-3.9
						c-22.2,15.1-131.3,18.1-157.3,0.7c-1-0.7-6.5,7.8-11,3.2c-4.6-4.6,4-9.7,3.4-10.4c-17.6-22.6-14.4-95.4-0.2-115.5
						C94.2,130.5,85.8,124.9,90.3,120.3z"/>
					<path class="st2" d="M91,121c4.6-4.6,10.1,4.1,10.9,3.6c22.2-15,130.7-16.3,156-0.4c1.1,0.7,6.9-7.7,11.5-3.1s-3.8,10-3.2,10.9
						c15.9,22.1,14.4,95.3-0.4,115.6c-0.6,0.8,8.3,5.6,3.6,10.3c-4.7,4.7-9.4-4.4-10.1-3.9c-22.2,15.1-131.3,18.1-157.3,0.7
						c-1-0.7-6.5,7.8-11,3.2c-4.6-4.6,4-9.7,3.4-10.4C76.9,224.9,80,152.2,94.3,132C94.9,131.2,86.5,125.6,91,121z"/>
					<path class="st2" d="M91.7,121.8c4.6-4.6,10.1,4.1,10.9,3.6c22.2-15,130.7-16.3,156-0.4c1.1,0.7,6.9-7.7,11.5-3.1
						c4.6,4.6-3.8,10-3.2,10.9c15.9,22.1,14.4,95.3-0.4,115.6c-0.6,0.8,8.3,5.6,3.6,10.3c-4.7,4.7-9.4-4.4-10.1-3.9
						c-22.2,15.1-131.3,18.1-157.3,0.7c-1-0.7-6.5,7.8-11,3.2c-4.6-4.6,4-9.7,3.4-10.4c-17.6-22.6-14.4-95.4-0.2-115.5
						C95.6,131.9,87.2,126.3,91.7,121.8z"/>
					<path class="st2" d="M92.4,122.5c4.6-4.6,10.1,4.1,10.9,3.6c22.2-15,130.7-16.3,156-0.4c1.1,0.7,6.9-7.7,11.5-3.1
						c4.6,4.6-3.8,10-3.2,10.9c15.9,22.1,14.4,95.3-0.4,115.6c-0.6,0.8,8.3,5.6,3.6,10.3c-4.7,4.7-9.4-4.4-10.1-3.9
						c-22.2,15.1-131.3,18.1-157.3,0.7c-1-0.7-6.5,7.8-11,3.2s4-9.7,3.4-10.4c-17.6-22.6-14.4-95.4-0.2-115.5
						C96.3,132.6,87.9,127,92.4,122.5z"/>
					<path class="st2" d="M93.2,123.2c4.6-4.6,10.1,4.1,10.9,3.6c22.2-15,130.7-16.3,156-0.4c1.1,0.7,6.9-7.7,11.5-3.1
						c4.6,4.6-3.8,10-3.2,10.9c15.9,22.1,14.4,95.3-0.4,115.6c-0.6,0.8,8.3,5.6,3.6,10.3c-4.7,4.7-9.4-4.4-10.1-3.9
						c-22.2,15.1-131.3,18.1-157.3,0.7c-1-0.7-6.5,7.8-11,3.2s4-9.7,3.4-10.4c-17.6-22.6-14.4-95.4-0.2-115.5
						C97,133.3,88.6,127.7,93.2,123.2z"/>
					<path class="st2" d="M93.9,123.9c4.6-4.6,10.1,4.1,10.9,3.6c22.2-15,130.7-16.3,156-0.4c1.1,0.7,6.9-7.7,11.5-3.1
						c4.6,4.6-3.8,10-3.2,10.9c15.9,22.1,14.4,95.3-0.4,115.6c-0.6,0.8,8.3,5.6,3.6,10.3c-4.7,4.7-9.4-4.4-10.1-3.9
						c-22.2,15.1-131.3,18.1-157.3,0.7c-1-0.7-6.5,7.8-11,3.2s4-9.7,3.4-10.4c-17.6-22.6-14.4-95.4-0.2-115.5
						C97.7,134,89.3,128.4,93.9,123.9z"/>
					<path class="st2" d="M94.6,124.6c4.6-4.6,10.1,4.1,10.9,3.6c22.2-15,130.7-16.3,156-0.4c1.1,0.7,6.9-7.7,11.5-3.1
						c4.6,4.6-3.8,10-3.2,10.9c15.9,22.1,14.4,95.3-0.4,115.6c-0.6,0.8,8.3,5.6,3.6,10.3c-4.7,4.7-9.4-4.4-10.1-3.9
						c-22.2,15.1-131.3,18.1-157.3,0.7c-1-0.7-6.5,7.8-11,3.2c-4.6-4.6,4-9.7,3.4-10.4c-17.6-22.6-14.4-95.4-0.2-115.5
						C98.4,134.7,90,129.1,94.6,124.6z"/>
					<path class="st2" d="M95.3,125.3c4.6-4.6,10.1,4.1,10.9,3.6c22.2-15,130.7-16.3,156-0.4c1.1,0.7,6.9-7.7,11.5-3.1
						s-3.8,10-3.2,10.9c15.9,22.1,14.4,95.3-0.4,115.6c-0.6,0.8,8.3,5.6,3.6,10.3c-4.7,4.7-9.4-4.4-10.1-3.9
						c-22.2,15.1-131.3,18.1-157.3,0.7c-1-0.7-6.5,7.8-11,3.2c-4.6-4.6,4-9.7,3.4-10.4c-17.6-22.6-14.4-95.4-0.2-115.5
						C99.1,135.4,90.7,129.9,95.3,125.3z"/>
					<path class="st2" d="M96,126c4.6-4.6,10.1,4.1,10.9,3.6c22.2-15,130.7-16.3,156-0.4c1.1,0.7,6.9-7.7,11.5-3.1
						c4.6,4.6-3.8,10-3.2,10.9c15.9,22.1,14.4,95.3-0.4,115.6c-0.6,0.8,8.3,5.6,3.6,10.3c-4.7,4.7-9.4-4.4-10.1-3.9
						c-22.2,15.1-131.3,18.1-157.3,0.7c-1-0.7-6.5,7.8-11,3.2c-4.6-4.6,4-9.7,3.4-10.4C81.8,229.9,85,157.1,99.2,137
						C99.8,136.1,91.4,130.6,96,126z"/>
					<path class="st2" d="M96.7,126.7c4.6-4.6,10.1,4.1,10.9,3.6c22.2-15,130.7-16.3,156-0.4c1.1,0.7,6.9-7.7,11.5-3.1
						c4.6,4.6-3.8,10-3.2,10.9c15.9,22.1,14.4,95.3-0.4,115.6c-0.6,0.8,8.3,5.6,3.6,10.3c-4.7,4.7-9.4-4.4-10.1-3.9
						c-22.2,15.1-131.3,18.1-157.3,0.7c-1-0.7-6.5,7.8-11,3.2s4-9.7,3.4-10.4c-17.6-22.6-14.4-95.4-0.2-115.5
						C100.5,136.9,92.1,131.3,96.7,126.7z"/>
					<path class="st2" d="M97.4,127.4c4.6-4.6,10.1,4.1,10.9,3.6c22.2-15,130.7-16.3,156-0.4c1.1,0.7,6.9-7.7,11.5-3.1
						c4.6,4.6-3.8,10-3.2,10.9c15.9,22.1,14.4,95.3-0.4,115.6c-0.6,0.8,8.3,5.6,3.6,10.3c-4.7,4.7-9.4-4.4-10.1-3.9
						c-22.2,15.1-131.3,18.1-157.3,0.7c-1-0.7-6.5,7.8-11,3.2s4-9.7,3.4-10.4c-17.6-22.6-14.4-95.4-0.2-115.5
						C101.3,137.6,92.8,132,97.4,127.4z"/>
					<path class="st2" d="M98.1,128.1c4.6-4.6,10.1,4.1,10.9,3.6c22.2-15,130.7-16.3,156-0.4c1.1,0.7,6.9-7.7,11.5-3.1
						c4.6,4.6-3.8,10-3.2,10.9c15.9,22.1,14.4,95.3-0.4,115.6c-0.6,0.8,8.3,5.6,3.6,10.3c-4.7,4.7-9.4-4.4-10.1-3.9
						c-22.2,15.1-131.3,18.1-157.3,0.7c-1-0.7-6.5,7.8-11,3.2s4-9.7,3.4-10.4c-17.6-22.6-14.4-95.4-0.2-115.5
						C102,138.3,93.5,132.7,98.1,128.1z"/>
					<path class="st2" d="M98.8,128.8c4.6-4.6,10.1,4.1,10.9,3.6c22.2-15,130.7-16.3,156-0.4c1.1,0.7,6.9-7.7,11.5-3.1
						c4.6,4.6-3.8,10-3.2,10.9c15.9,22.1,14.4,95.3-0.4,115.6c-0.6,0.8,8.3,5.6,3.6,10.3c-4.7,4.7-9.4-4.4-10.1-3.9
						c-22.2,15.1-131.3,18.1-157.3,0.7c-1-0.7-6.5,7.8-11,3.2c-4.6-4.6,4-9.7,3.4-10.4c-17.6-22.6-14.4-95.4-0.2-115.5
						C102.7,139,94.3,133.4,98.8,128.8z"/>
					<path class="st2" d="M99.5,129.5c4.6-4.6,10.1,4.1,10.9,3.6c22.2-15,130.7-16.3,156-0.4c1.1,0.7,6.9-7.7,11.5-3.1
						c4.6,4.6-3.8,10-3.2,10.9c15.9,22.1,14.4,95.3-0.4,115.6c-0.6,0.8,8.3,5.6,3.6,10.3c-4.7,4.7-9.4-4.4-10.1-3.9
						c-22.2,15.1-131.3,18.1-157.3,0.7c-1-0.7-6.5,7.8-11,3.2c-4.6-4.6,4-9.7,3.4-10.4c-17.6-22.6-14.4-95.4-0.2-115.5
						C103.4,139.7,95,134.1,99.5,129.5z"/>
					<path class="st2" d="M100.2,130.2c4.6-4.6,10.1,4.1,10.9,3.6c22.2-15,130.7-16.3,156-0.4c1.1,0.7,6.9-7.7,11.5-3.1
						c4.6,4.6-3.8,10-3.2,10.9c15.9,22.1,14.4,95.3-0.4,115.6c-0.6,0.8,8.3,5.6,3.6,10.3c-4.7,4.7-9.4-4.4-10.1-3.9
						c-22.2,15.1-131.3,18.1-157.3,0.7c-1-0.7-6.5,7.8-11,3.2c-4.6-4.6,4-9.7,3.4-10.4c-17.6-22.6-14.4-95.4-0.2-115.5
						C104.1,140.4,95.7,134.8,100.2,130.2z"/>
					<path class="st2" d="M100.9,131c4.6-4.6,10.1,4.1,10.9,3.6c22.2-15,130.7-16.3,156-0.4c1.1,0.7,6.9-7.7,11.5-3.1
						c4.6,4.6-3.8,10-3.2,10.9c15.9,22.1,14.4,95.3-0.4,115.6c-0.6,0.8,8.3,5.6,3.6,10.3c-4.7,4.7-9.4-4.4-10.1-3.9
						C247,279.1,137.9,282,112,264.6c-1-0.7-6.5,7.8-11,3.2s4-9.7,3.4-10.4c-17.6-22.6-14.4-95.4-0.2-115.5
						C104.8,141.1,96.4,135.5,100.9,131z"/>
					<path class="st2" d="M101.6,131.7c4.6-4.6,10.1,4.1,10.9,3.6c22.2-15,130.7-16.3,156-0.4c1.1,0.7,6.9-7.7,11.5-3.1
						c4.6,4.6-3.8,10-3.2,10.9c15.9,22.1,14.4,95.3-0.4,115.6c-0.6,0.8,8.3,5.6,3.6,10.3c-4.7,4.7-9.4-4.4-10.1-3.9
						c-22.2,15.1-131.3,18.1-157.3,0.7c-1-0.7-6.5,7.8-11,3.2s4-9.7,3.4-10.4c-17.6-22.6-14.4-95.4-0.2-115.5
						C105.5,141.8,97.1,136.2,101.6,131.7z"/>
					<path class="st2" d="M102.4,132.4c4.6-4.6,10.1,4.1,10.9,3.6c22.2-15,130.7-16.3,156-0.4c1.1,0.7,6.9-7.7,11.5-3.1
						c4.6,4.6-3.8,10-3.2,10.9c15.9,22.1,14.4,95.3-0.4,115.6c-0.6,0.8,8.3,5.6,3.6,10.3c-4.7,4.7-9.4-4.4-10.1-3.9
						c-22.2,15.1-131.3,18.1-157.3,0.7c-1-0.7-6.5,7.8-11,3.2s4-9.7,3.4-10.4c-17.6-22.6-14.4-95.4-0.2-115.5
						C106.2,142.5,97.8,136.9,102.4,132.4z"/>
				</g>
			</g>
		</g>
		<g>
			<path class="st13" d="M64.9,94.9c4.6-4.6,10.1,4.1,10.9,3.6c22.2-15,130.7-16.3,156-0.4c1.1,0.7,6.9-7.7,11.5-3.1
				c4.6,4.6-3.8,10-3.2,10.9c15.9,22.1,14.4,95.3-0.4,115.6c-0.6,0.8,8.3,5.6,3.6,10.3c-4.7,4.7-9.4-4.4-10.1-3.9
				c-22.2,15.1-131.3,18.1-157.3,0.7c-1-0.7-6.5,7.8-11,3.2c-4.6-4.6,4-9.7,3.4-10.4c-17.6-22.6-14.4-95.4-0.2-115.5
				C68.7,105,60.3,99.4,64.9,94.9z"/>
		</g>
		<path class="st24" d="M183.1,219.3c18-8,23.2-14.3,21.6-38.2c1-0.5,1.9-1.2,2.7-1.9c1.2-1.1,2.3-2.4,3.1-4c1.3-2.4,2-5.1,2-7.9
			c0-4.8-0.9-8.9-2.6-11.8c11.9-32.7,5-55.1-14.9-66.9c-31.6-3.6-73.8-2.4-99.7,3c-0.7,3.2,0.2,7.5,2.6,12.4
			c-0.1,0.2-0.2,0.5-0.3,0.7c-12.2,16.5-8.3,37.3-1.3,52.1c-1.3,2.8-1.9,6.3-1.9,10.5c0,4.6,1.9,8.9,5.1,11.8c0.9,0.8,1.9,1.5,3,2.1
			c-0.3,21.8,3.5,29.8,20.1,38.1c0.2,0.8,0.7,3.5,1,7.1c0.5,5.3,0.1,9.8-1,13c19.6,1.5,41.9,1.3,61.6-0.4
			C181,231.7,182.8,221.1,183.1,219.3z"/>
		<path class="st25" d="M239.7,221.4c14.8-20.3,16.4-93.6,0.4-115.6c-0.2-0.2,0.3-0.8,1-1.6c0,0,0,0,0,0c1.9-2.2,5.6-6,2.2-9.4
			c-3.4-3.4-7.5,0.4-9.9,2.2c0.4,0.2,0.7,0.4,0.9,0.5c-0.2-0.1-0.5-0.3-0.9-0.5c-0.8,0.6-1.4,1.1-1.7,0.9c-1.6-1-3.6-1.9-5.8-2.8
			c12.4,29.9,9.3,100.7-6,116c-15,15-113.5,19.5-153.7,7.2c0.6,1.1,1.3,2.1,2,3c0.1,0.2-0.3,0.7-1,1.4c-2,2-5.8,5.6-2.4,9
			c3.4,3.4,7.4-0.5,9.5-2.4c0.7-0.6,1.3-1,1.5-0.9c25.9,17.4,135,14.5,157.3-0.7c0.7-0.5,5.4,8.6,10.1,3.9
			C248,227,239.1,222.2,239.7,221.4z M234.6,97.7C234.9,97.9,234.9,97.9,234.6,97.7L234.6,97.7z"/>
	</g>
	<g>
		<defs>
			<path id="SVGID_35_" d="M242,214.9c-74,85.2-199.2,48.6-213.4-28.5c-11.6-62.8,23-108.9,65.4-136.6
				c25.2-16.5,94.8-21.9,141.2,5.8C284.1,84.8,286.1,164.1,242,214.9z"/>
		</defs>
		<clipPath id="SVGID_4_">
			<use xlink:href="#SVGID_35_"  style="overflow:visible;"/>
		</clipPath>
		<g class="st17">
			<path class="st4" d="M194.4,166.5c0,7.2-0.6,13.9,3.9,13.9c6.7,0,12-5.9,12-13.1C210.3,147.4,194.4,149.5,194.4,166.5z"/>
			<path class="st4" d="M112.6,166.5c0,7.2,0.6,13.9-3.9,13.9c-6.7,0-12-5.9-12-13.1C96.7,147.4,112.6,149.5,112.6,166.5z"/>
			<path class="st45" d="M198.3,175.9c-3.2,0-3.8-3.4-3.9-8c0,6.7-0.3,12.6,3.9,12.6c6.7,0,12-5.9,12-13.1c0-1.1-0.1-2-0.2-3
				C209.4,170.9,204.4,175.9,198.3,175.9z"/>
			<path class="st45" d="M108.7,175.9c-6.1,0-11.1-5-11.9-11.5c-0.1,0.9-0.2,1.9-0.2,3c0,7.2,5.4,13.1,12,13.1
				c4.2,0,3.9-5.9,3.9-12.6C112.5,172.5,111.9,175.9,108.7,175.9z"/>
			<g>
				<path class="st6" d="M124.8,218.5c0,0,4.5,19.3-2.9,26.7c-7.4,7.4-72.7,3.3-72.7,37.5h208.4c0-29.4-64.2-30.2-72.3-38.3
					c-8.1-8.1-4.3-25.9-4.3-25.9H124.8z"/>
				<path class="st46" d="M125.9,226.2c8.1,5.6,21.4,10.7,27.9,10.7c5.8,0,17.9-4.8,25.1-9.4c0.6-5,2-8.9,2-8.9h-56.1
					C124.8,218.5,125.6,221.8,125.9,226.2z"/>
			</g>
			<path class="st8" d="M204.1,162.7c-3.7,43.3-3.9,45.5-34.1,61c-10.2,5.3-22.4,5.4-32.8,0.5c-29.6-14.1-29.8-16.3-34.4-61.5
				c-3.9-37.7,22.7-68.6,50.7-68.6S207.4,125,204.1,162.7z"/>
			<path class="st10" d="M205.6,163.5c6-21.5,20.1-82.5-52.1-82.5c-69.4,0-62.2,53-53.5,80.4c2.8,8.7,6.7,4.3,6.7-1.2
				c0-2.3-2-16,6-16c4.9,0,1.7-17.8,22.9-11.6c8.1,2.4,3.5-9.6,15.6-9.6c12.5,0,11.1,12.2,19.9,9.6c14.6-4.4,15.9,9.7,20.4,9.7
				c6.9,0,8.1,14.8,7.9,18.2C198.7,168.5,203.5,170.8,205.6,163.5z"/>
			<path class="st11" d="M187.1,95.9c-5.9-5.1-15.8-8.4-31.5-8.4c-28,0-31.8,10.1-49.6,9.1c-3.5,3.7-6,7.9-7.8,12.4
				c4.6,7.6,14.7,16.7,28.6,22.3c2.3-0.1,5.2,0.2,8.8,1.3c8.1,2.4,3.5-9.6,15.6-9.6c12.5,0,11.1,12.2,19.9,9.6
				C174.6,131.5,192.3,100.4,187.1,95.9z"/>
			<path class="st10" d="M192.3,106.9c0-15.2-8.7-28.8-37.1-28.8s-30.8,13.2-50.8,10.1c-20-3.1,5,47.9,49.1,47.9
				C187.8,136.1,192.3,114.6,192.3,106.9z"/>
			<path class="st47" d="M124.4,167.5c2.9,4.4,12.9,4.6,16.8,0"/>
			<path class="st47" d="M165.8,167.5c2.9,4.4,12.9,4.6,16.8,0"/>
			<path class="st48" d="M146.4,190.1c0,1.7,1.3,2.1,2.7,2.2c1.4,0.2,1.9,1.2,3.7,1.2c1.8,0,2.3-1,3.7-1.2c1.4-0.2,2.7-0.6,2.7-2.2"
				/>
			<g>
				<g>
					<g>
						<path class="st18" d="M158.1,180.6l1.2,0.1c0.6,0,1.1-0.5,1.1-1.1l0-0.2c0-0.2,0.2-0.4,0.4-0.4c2,0.2,4,0.4,5.8,0.7
							c0.1,0,0.2,0.1,0.3,0.2l1.1,2.4c0.1,0.2,0,0.4-0.2,0.4l-1.9-0.1l-7.8-1L158.1,180.6z"/>
						<path class="st18" d="M147.4,180.6l-1.2,0.1c-0.6,0-1.1-0.5-1.1-1.1l0-0.2c0-0.2-0.2-0.4-0.4-0.4c-2,0.2-4,0.4-5.8,0.7
							c-0.1,0-0.2,0.1-0.3,0.2l-1.1,2.4c-0.1,0.2,0,0.4,0.2,0.4l1.9-0.1l7.8-1L147.4,180.6z"/>
						<path class="st19" d="M147.5,181.5l-0.1-0.9l-1.2,0.1c-0.3,0-0.5-0.1-0.7-0.2c-1.9,0.1-3.7,0.3-5.6,0.6
							c-0.5,0.1-0.9,0.6-0.8,1.2c0,0.1,0,0.2,0.1,0.3l0.5,0L147.5,181.5z"/>
						<path class="st19" d="M166.4,182.5c0-0.1,0.1-0.2,0.1-0.3c0.1-0.6-0.3-1.1-0.8-1.2c-1.9-0.2-3.8-0.4-5.6-0.6
							c-0.2,0.2-0.4,0.3-0.7,0.2l-1.2-0.1l-0.1,0.9l7.8,1L166.4,182.5z"/>
						<path class="st18" d="M147,187.6l-0.9,0.1c-0.7,0.1-1.2,0.8-1.2,1.7l0,0c0,0.3-0.2,0.6-0.4,0.7c-1.9,0.1-3.8,0.4-5.7,0.8
							c-0.1,0-0.2-0.1-0.3-0.2c-0.3-0.7-0.6-1.5-1.1-2.2c-0.1-0.2,0-0.5,0.2-0.5c0.6-0.3,1.3-0.4,2-0.5l7.2-0.9L147,187.6z"/>
						<path class="st18" d="M140.1,183.7c-0.5,0-0.9-0.4-0.9-0.9c-0.1-0.6,0.3-1.1,0.8-1.2c8.5-1.1,17.1-1.1,25.6,0
							c0.5,0.1,0.9,0.6,0.8,1.2c-0.1,0.6-0.5,1-1,0.9c-8.4-1.1-16.8-1.1-25.2,0C140.2,183.7,140.1,183.7,140.1,183.7z"/>
						<path class="st18" d="M158.5,187.6l0.9,0.1c0.7,0.1,1.2,0.8,1.2,1.7l0,0c0,0.3,0.2,0.6,0.4,0.7c1.9,0.1,3.8,0.4,5.7,0.8
							c0.1,0,0.2-0.1,0.3-0.2c0.3-0.7,0.6-1.5,1.1-2.2c0.1-0.2,0-0.5-0.2-0.5c-0.6-0.3-1.3-0.4-2-0.5l-7.2-0.9L158.5,187.6z"/>
						<path class="st18" d="M140.1,186.1c-0.5,0-0.9-0.4-0.9-0.9c-0.1-0.6,0.3-1.1,0.8-1.2c8.5-1.1,17.1-1.1,25.6,0
							c0.5,0.1,0.9,0.6,0.8,1.2c-0.1,0.6-0.5,1-1,0.9c-8.4-1.1-16.8-1.1-25.2,0C140.2,186.1,140.1,186.1,140.1,186.1z"/>
						<path class="st19" d="M140.1,183.4c-0.5,0-0.9-0.4-0.9-0.9c-0.1-0.6,0.3-1.1,0.8-1.2c8.5-1.1,17.1-1.1,25.6,0
							c0.5,0.1,0.9,0.6,0.8,1.2c-0.1,0.6-0.5,1-1,0.9c-8.4-1.1-16.8-1.1-25.2,0C140.2,183.4,140.1,183.4,140.1,183.4z"/>
						<path class="st19" d="M140.1,185.8c-0.5,0-0.9-0.4-0.9-0.9c-0.1-0.6,0.3-1.1,0.8-1.2c8.5-1.1,17.1-1.1,25.6,0
							c0.5,0.1,0.9,0.6,0.8,1.2c-0.1,0.6-0.5,1-1,0.9c-8.4-1.1-16.8-1.1-25.2,0C140.2,185.8,140.1,185.8,140.1,185.8z"/>
						<path class="st19" d="M140.1,188.2c-0.5,0-0.9-0.4-0.9-0.9c-0.1-0.6,0.3-1.1,0.8-1.2c8.5-1.1,17.1-1.1,25.6,0
							c0.5,0.1,0.9,0.6,0.8,1.2c-0.1,0.6-0.5,1-1,0.9c-8.4-1.1-16.8-1.1-25.2,0C140.2,188.2,140.1,188.2,140.1,188.2z"/>
					</g>
					<g>
						<path class="st20" d="M158.1,180.6l1.2,0.1c0.6,0,1.1-0.5,1.1-1.1l0-0.2c0-0.2,0.2-0.4,0.4-0.4c2,0.2,4,0.4,5.8,0.7
							c0.1,0,0.2,0.1,0.3,0.2l1.1,2.3c0.1,0.2,0,0.4-0.2,0.4l-1.9-0.1l-7.8-0.9L158.1,180.6z"/>
						<path class="st20" d="M147.4,180.6l-1.2,0.1c-0.6,0-1.1-0.5-1.1-1.1l0-0.2c0-0.2-0.2-0.4-0.4-0.4c-2,0.2-4,0.4-5.8,0.7
							c-0.1,0-0.2,0.1-0.3,0.2l-1.1,2.3c-0.1,0.2,0,0.4,0.2,0.4l1.9-0.1l7.8-0.9L147.4,180.6z"/>
						<path class="st21" d="M147.5,181.5l-0.1-0.9l-1.2,0.1c-0.3,0-0.5-0.1-0.7-0.2c-1.9,0.1-3.7,0.3-5.6,0.5
							c-0.5,0.1-0.9,0.6-0.8,1.1c0,0.1,0,0.2,0.1,0.3l0.5,0L147.5,181.5z"/>
						<path class="st21" d="M166.4,182.4c0-0.1,0.1-0.2,0.1-0.3c0.1-0.6-0.3-1.1-0.8-1.1c-1.9-0.2-3.8-0.4-5.6-0.5
							c-0.2,0.2-0.4,0.2-0.7,0.2l-1.2-0.1l-0.1,0.9l7.8,0.9L166.4,182.4z"/>
						<path class="st20" d="M147,187.6l-0.9,0.1c-0.7,0.1-1.2,0.7-1.2,1.5v0c0,0.3-0.2,0.5-0.4,0.6c-1.9,0.1-3.8,0.3-5.7,0.7
							c-0.1,0-0.2,0-0.3-0.1c-0.3-0.7-0.6-1.3-1.1-2c-0.1-0.2,0-0.4,0.2-0.5c0.6-0.2,1.3-0.4,2-0.4l7.2-0.8L147,187.6z"/>
						<path class="st18" d="M140.1,183.6c-0.5,0-0.9-0.4-0.9-0.9c-0.1-0.6,0.3-1.1,0.8-1.1c8.5-1.1,17.1-1.1,25.6,0
							c0.5,0.1,0.9,0.6,0.8,1.1c-0.1,0.6-0.5,1-1,0.9c-8.4-1-16.8-1-25.2,0C140.2,183.6,140.1,183.6,140.1,183.6z"/>
						<path class="st20" d="M158.5,187.6l0.9,0.1c0.7,0.1,1.2,0.7,1.2,1.5v0c0,0.3,0.2,0.5,0.4,0.6c1.9,0.1,3.8,0.3,5.7,0.7
							c0.1,0,0.2,0,0.3-0.1c0.3-0.7,0.6-1.3,1.1-2c0.1-0.2,0-0.4-0.2-0.5c-0.6-0.2-1.3-0.4-2-0.4l-7.2-0.8L158.5,187.6z"/>
						<path class="st18" d="M140.1,185.9c-0.5,0-0.9-0.4-0.9-0.9c-0.1-0.6,0.3-1.1,0.8-1.1c8.5-1.1,17.1-1.1,25.6,0
							c0.5,0.1,0.9,0.6,0.8,1.1c-0.1,0.6-0.5,1-1,0.9c-8.4-1-16.8-1-25.2,0C140.2,185.9,140.1,185.9,140.1,185.9z"/>
						<path class="st18" d="M140.1,188.2c-0.5,0-0.9-0.4-0.9-0.9c-0.1-0.6,0.3-1.1,0.8-1.1c8.5-1.1,17.1-1.1,25.6,0
							c0.5,0.1,0.9,0.6,0.8,1.1c-0.1,0.6-0.5,1-1,0.9c-8.4-1-16.8-1-25.2,0C140.2,188.2,140.1,188.2,140.1,188.2z"/>
						<path class="st20" d="M140.1,183.3c-0.5,0-0.9-0.4-0.9-0.9c-0.1-0.6,0.3-1.1,0.8-1.1c8.5-1.1,17.1-1.1,25.6,0
							c0.5,0.1,0.9,0.6,0.8,1.1c-0.1,0.6-0.5,1-1,0.9c-8.4-1-16.8-1-25.2,0C140.2,183.3,140.1,183.3,140.1,183.3z"/>
						<path class="st20" d="M140.1,185.6c-0.5,0-0.9-0.4-0.9-0.9c-0.1-0.6,0.3-1.1,0.8-1.1c8.5-1.1,17.1-1.1,25.6,0
							c0.5,0.1,0.9,0.6,0.8,1.1c-0.1,0.6-0.5,1-1,0.9c-8.4-1-16.8-1-25.2,0C140.2,185.6,140.1,185.6,140.1,185.6z"/>
						<path class="st20" d="M140.1,187.9c-0.5,0-0.9-0.4-0.9-0.9c-0.1-0.6,0.3-1.1,0.8-1.1c8.5-1.1,17.1-1.1,25.6,0
							c0.5,0.1,0.9,0.6,0.8,1.1c-0.1,0.6-0.5,1-1,0.9c-8.4-1-16.8-1-25.2,0C140.2,187.9,140.1,187.9,140.1,187.9z"/>
					</g>
				</g>
			</g>
			<path class="st49" d="M142.8,201.7c3.5,4.7,15.4,5,20,0"/>
		</g>
	</g>
	<g>
		<path class="st50" d="M148.8,73.5c-0.9,0-1.8-0.5-2.3-1.3c-0.6-1-0.5-2.2,0.2-3.1c5.8-7.2,11.6-13.2,17.4-17.8
			c-4.7-0.4-9.3-0.1-13.8,1c-1.4,0.3-2.9-0.6-3.2-2c-0.3-1.4,0.6-2.9,2-3.2c7.3-1.7,14.8-1.8,22.3-0.1c1,0.2,1.9,1.1,2.1,2.1
			c0.2,1-0.2,2.1-1.1,2.7c-5.5,3.8-11.1,8.9-16.8,15.3c5.5-0.5,11.1-0.1,16.5,1c1.4,0.3,2.4,1.7,2.1,3.2c-0.3,1.4-1.7,2.4-3.2,2.1
			c-7.2-1.5-14.4-1.4-21.6,0.1C149.1,73.5,149,73.5,148.8,73.5z"/>
		<path class="st13" d="M119.1,90.6c-0.9,0-1.8-0.5-2.3-1.3c-0.6-1-0.5-2.2,0.2-3.1c4.6-5.7,9.2-10.5,13.8-14.4
			c-3.5-0.2-7,0.1-10.4,0.9c-1.4,0.3-2.9-0.6-3.2-2c-0.3-1.4,0.6-2.9,2-3.2c6.2-1.5,12.5-1.5,19-0.1c1,0.2,1.9,1.1,2.1,2.1
			c0.2,1-0.2,2.1-1.1,2.7c-4.4,3-8.8,7-13.3,12c4.3-0.3,8.6,0,12.9,0.9c1.4,0.3,2.4,1.7,2.1,3.2c-0.3,1.5-1.7,2.4-3.2,2.1
			c-6-1.2-12-1.2-17.9,0.1C119.5,90.6,119.3,90.6,119.1,90.6z"/>
		<path class="st51" d="M147.9,110.8c-0.7,0-1.3-0.4-1.7-1c-0.4-0.7-0.4-1.7,0.2-2.3c3.1-3.8,6.2-7,9.2-9.7
			c-2.3-0.1-4.5,0.1-6.7,0.6c-1.1,0.3-2.2-0.4-2.4-1.5c-0.3-1.1,0.4-2.2,1.5-2.4c4.3-1,8.7-1,13.1-0.1c0.8,0.2,1.4,0.8,1.5,1.6
			c0.2,0.8-0.2,1.6-0.8,2c-2.9,2-5.9,4.7-8.9,8c2.9-0.1,5.7,0.1,8.6,0.7c1.1,0.2,1.8,1.3,1.6,2.4s-1.3,1.8-2.4,1.6
			c-4.1-0.8-8.2-0.8-12.3,0.1C148.2,110.7,148.1,110.8,147.9,110.8z"/>
	</g>
</g>
</svg>
