<?xml version="1.0" encoding="utf-8"?>
<!-- Generator: Adobe Illustrator 22.0.1, SVG Export Plug-In . SVG Version: 6.00 Build 0)  -->
<svg version="1.1" id="Layer_1" xmlns="http://www.w3.org/2000/svg" xmlns:xlink="http://www.w3.org/1999/xlink" x="0px" y="0px"
	 viewBox="0 0 25 25" style="enable-background:new 0 0 25 25;" xml:space="preserve">
<style type="text/css">
	.st0{fill:#FFFFFF;}
</style>
<path class="st0" d="M10.6,18.3c4.9,0,7.6-4.1,7.6-7.6c0-0.1,0-0.2,0-0.3c0.5-0.4,1-0.8,1.3-1.4c-0.5,0.2-1,0.4-1.5,0.4
	c0.6-0.3,1-0.9,1.2-1.5c-0.5,0.3-1.1,0.5-1.7,0.6c-1-1.1-2.7-1.1-3.8-0.1c-0.7,0.7-1,1.6-0.8,2.5c-2.1-0.1-4.1-1.1-5.5-2.8
	C6.7,9.4,7,11,8.2,11.8c-0.4,0-0.8-0.1-1.2-0.3v0c0,1.3,0.9,2.4,2.1,2.6c-0.4,0.1-0.8,0.1-1.2,0c0.3,1.1,1.3,1.8,2.5,1.9
	c-0.9,0.7-2.1,1.1-3.3,1.1c-0.2,0-0.4,0-0.6,0C7.7,17.9,9.1,18.3,10.6,18.3"/>
</svg>
