<?xml version="1.0" encoding="utf-8"?>
<!-- Generator: Adobe Illustrator 22.0.1, SVG Export Plug-In . SVG Version: 6.00 Build 0)  -->
<svg version="1.1" id="Layer_1" xmlns="http://www.w3.org/2000/svg" xmlns:xlink="http://www.w3.org/1999/xlink" x="0px" y="0px"
	 viewBox="0 0 300 300" style="enable-background:new 0 0 300 300;" xml:space="preserve">
<style type="text/css">
	.st0{fill:#FFF7E2;}
	.st1{clip-path:url(#SVGID_2_);}
	.st2{fill:#FFF1CC;}
	.st3{fill:#7A5A4A;}
	.st4{fill:#F2D5C7;}
	.st5{fill:#E8C7B5;}
	.st6{fill:#F9DFD1;}
	.st7{fill:#F2D0BD;}
	.st8{fill:#F9E1D4;}
	.st9{fill:none;stroke:#AD7F69;stroke-width:5.005;stroke-linecap:round;stroke-linejoin:round;stroke-miterlimit:10;}
	.st10{fill:#8A6554;}
	.st11{fill:#7A4D39;}
	
		.st12{opacity:0.4;fill:none;stroke:#AD7F69;stroke-width:3.5518;stroke-linecap:round;stroke-linejoin:round;stroke-miterlimit:10;}
	.st13{fill:#FF9E30;}
	.st14{fill:#E37A00;}
	.st15{fill:#FFFFFF;}
	.st16{fill:#F9EAE3;}
	.st17{clip-path:url(#SVGID_4_);}
	.st18{fill:#997566;}
	.st19{fill:#B89484;}
	.st20{fill:#DBA486;}
	.st21{fill:#FFE8DB;}
	.st22{fill:url(#SVGID_5_);}
	.st23{clip-path:url(#SVGID_7_);}
	.st24{fill:#F29327;}
	.st25{fill:#F58300;}
	.st26{clip-path:url(#SVGID_9_);}
	.st27{opacity:0.5;}
	.st28{opacity:0.75;clip-path:url(#SVGID_11_);}
	.st29{fill:url(#SVGID_12_);}
	.st30{clip-path:url(#SVGID_14_);}
	.st31{clip-path:url(#SVGID_16_);}
	.st32{opacity:0.75;clip-path:url(#SVGID_18_);}
	.st33{fill:url(#SVGID_19_);}
	.st34{clip-path:url(#SVGID_21_);}
	.st35{clip-path:url(#SVGID_23_);}
	.st36{opacity:0.75;clip-path:url(#SVGID_25_);}
	.st37{fill:none;stroke:#FFFFFF;stroke-width:2.2105;stroke-linecap:round;stroke-linejoin:round;stroke-miterlimit:10;}
	.st38{fill:url(#SVGID_26_);}
	.st39{clip-path:url(#SVGID_28_);}
	.st40{clip-path:url(#SVGID_30_);}
	.st41{opacity:0.6;clip-path:url(#SVGID_32_);}
	.st42{fill:none;stroke:#FFFFFF;stroke-width:3.3157;stroke-linecap:round;stroke-linejoin:round;stroke-miterlimit:10;}
	.st43{clip-path:url(#SVGID_34_);}
	.st44{clip-path:url(#SVGID_36_);}
	.st45{fill:#F9C5A9;}
	.st46{fill:#F9D1BB;}
	.st47{fill:none;stroke:#AD7F69;stroke-width:3.4099;stroke-linecap:round;stroke-linejoin:round;stroke-miterlimit:10;}
	
		.st48{opacity:0.4;fill:none;stroke:#AD7F69;stroke-width:2.2934;stroke-linecap:round;stroke-linejoin:round;stroke-miterlimit:10;}
	.st49{fill:none;stroke:#AD7F69;stroke-width:3.2318;stroke-linecap:round;stroke-linejoin:round;stroke-miterlimit:10;}
	.st50{fill:#F08000;}
	.st51{fill:#FFC16B;}
	.st52{clip-path:url(#SVGID_38_);}
	.st53{opacity:0.6;}
	.st54{fill:#FFE4BD;}
	.st55{fill:none;stroke:#FFFFFF;stroke-width:5.5683;stroke-linecap:round;stroke-linejoin:round;stroke-miterlimit:10;}
	.st56{fill:none;stroke:#FFFFFF;stroke-width:4.1762;stroke-linecap:round;stroke-linejoin:round;stroke-miterlimit:10;}
	.st57{fill:#FFC87A;}
	.st58{fill:none;stroke:#FFFFFF;stroke-width:4.074;stroke-linecap:round;stroke-linejoin:round;stroke-miterlimit:10;}
	.st59{opacity:0.4;fill:#FFE4BD;}
	.st60{clip-path:url(#SVGID_40_);}
	.st61{fill:#F6F6F6;}
	.st62{fill:#F1F1F1;}
	.st63{fill:#CBCBCB;}
	.st64{fill:#E5E5E5;}
	.st65{fill:none;stroke:#FFD293;stroke-width:2.5864;stroke-linecap:round;stroke-linejoin:round;stroke-miterlimit:10;}
	.st66{fill:#D67300;}
	.st67{fill:#FFAF42;}
	.st68{clip-path:url(#SVGID_42_);}
	.st69{clip-path:url(#SVGID_42_);fill:#FFF1CC;}
	.st70{fill:url(#SVGID_43_);}
	.st71{fill:#FFE7C8;}
	.st72{fill:#FFD6A1;}
	.st73{opacity:0.5;fill:#FFDEBB;}
	.st74{fill:#FAAD5A;}
	.st75{fill:none;stroke:#FFFFFF;stroke-width:3.7985;stroke-linecap:round;stroke-linejoin:round;stroke-miterlimit:10;}
	.st76{clip-path:url(#SVGID_45_);}
	.st77{fill:#CBA28C;}
	.st78{clip-path:url(#SVGID_47_);}
	.st79{fill:#FFA538;}
	.st80{opacity:0.5;fill:#FABF5F;}
	.st81{fill:#BF917F;}
	.st82{fill:#C46900;}
	.st83{opacity:0.3;fill:#CBA28C;}
	.st84{clip-path:url(#SVGID_49_);}
	.st85{fill:none;stroke:#BF917F;stroke-width:6.0323;stroke-linecap:round;stroke-linejoin:round;stroke-miterlimit:10;}
	.st86{fill:url(#SVGID_50_);}
	.st87{opacity:0.3;fill:#F7BB72;}
	.st88{fill:url(#SVGID_51_);}
	.st89{fill:url(#SVGID_52_);}
	.st90{fill:url(#SVGID_53_);}
	.st91{fill:url(#SVGID_54_);}
	.st92{fill:url(#SVGID_55_);}
	.st93{opacity:0.5;fill:#F29422;}
	.st94{fill:url(#SVGID_56_);}
	.st95{fill:url(#SVGID_57_);}
	.st96{fill:url(#SVGID_58_);}
	.st97{fill:url(#SVGID_59_);}
	.st98{fill:#EB7E00;}
	.st99{fill:#CF6F00;}
	.st100{clip-path:url(#SVGID_63_);}
	.st101{fill:#FFA43D;}
	.st102{fill:#FFBE75;}
	.st103{fill:none;stroke:#BF917F;stroke-width:6.8925;stroke-linecap:round;stroke-linejoin:round;stroke-miterlimit:10;}
	.st104{fill:#E87C00;}
	.st105{fill:#FFA945;}
	.st106{fill:#FFFBF0;}
	.st107{clip-path:url(#SVGID_65_);}
	.st108{fill:none;stroke:#BF917F;stroke-width:7.8232;stroke-linecap:round;stroke-linejoin:round;stroke-miterlimit:10;}
	.st109{fill:none;stroke:#CBA28C;stroke-width:7.8232;stroke-linecap:round;stroke-linejoin:round;stroke-miterlimit:10;}
	.st110{fill:url(#SVGID_66_);}
	.st111{fill:url(#SVGID_67_);}
	.st112{fill:url(#SVGID_68_);}
	.st113{fill:url(#SVGID_69_);}
	.st114{fill:url(#SVGID_70_);}
	.st115{fill:#FFD293;}
	.st116{fill:url(#SVGID_71_);}
	.st117{fill:url(#SVGID_72_);}
	.st118{fill:url(#SVGID_73_);}
	.st119{fill:url(#SVGID_74_);}
	.st120{fill:url(#SVGID_75_);}
	.st121{fill:url(#SVGID_76_);}
	.st122{fill:url(#SVGID_77_);}
	.st123{fill:url(#SVGID_78_);}
	.st124{fill:url(#SVGID_79_);}
	.st125{fill:url(#SVGID_80_);}
	.st126{fill:url(#SVGID_81_);}
	.st127{fill:url(#SVGID_82_);}
	.st128{fill:url(#SVGID_83_);}
	.st129{fill:url(#SVGID_84_);}
	.st130{fill:url(#SVGID_85_);}
	.st131{fill:url(#SVGID_86_);}
	.st132{fill:url(#SVGID_87_);}
	.st133{fill:url(#SVGID_88_);}
	.st134{fill:url(#SVGID_89_);}
	.st135{fill:url(#SVGID_90_);}
	.st136{fill:url(#SVGID_91_);}
	.st137{fill:url(#SVGID_92_);}
	.st138{fill:url(#SVGID_93_);}
	.st139{fill:url(#SVGID_94_);}
	.st140{fill:url(#SVGID_95_);}
	.st141{fill:url(#SVGID_96_);}
	.st142{fill:url(#SVGID_97_);}
	.st143{fill:url(#SVGID_98_);}
	.st144{fill:url(#SVGID_99_);}
	.st145{fill:url(#SVGID_100_);}
	.st146{fill:url(#SVGID_101_);}
	.st147{fill:url(#SVGID_102_);}
	.st148{fill:url(#SVGID_103_);}
	.st149{clip-path:url(#SVGID_105_);}
	.st150{clip-path:url(#SVGID_107_);}
	.st151{fill:#FFE9DC;}
	.st152{fill:#E9C8B6;}
	.st153{opacity:0.3;fill:#FFE9DC;}
	.st154{fill:url(#SVGID_108_);}
	.st155{clip-path:url(#SVGID_110_);}
	.st156{fill:#FFE1CF;}
	.st157{fill:none;stroke:#DE7600;stroke-width:4.595;stroke-linecap:round;stroke-linejoin:round;}
	
		.st158{fill:none;stroke:#DE7600;stroke-width:4.595;stroke-linecap:round;stroke-linejoin:round;stroke-dasharray:12.3052,12.3052;}
	.st159{clip-path:url(#SVGID_112_);}
	.st160{fill:url(#SVGID_113_);}
	.st161{clip-path:url(#SVGID_115_);}
	.st162{fill:#F9E8DB;}
	.st163{clip-path:url(#SVGID_117_);}
	.st164{clip-path:url(#SVGID_119_);}
	.st165{fill:none;stroke:#FFFFFF;stroke-width:6.5758;stroke-linecap:round;stroke-linejoin:round;stroke-miterlimit:10;}
	.st166{fill:none;stroke:#FFFFFF;stroke-width:4.9318;stroke-linecap:round;stroke-linejoin:round;stroke-miterlimit:10;}
	.st167{clip-path:url(#SVGID_121_);}
	.st168{clip-path:url(#SVGID_123_);}
	.st169{fill:#C47C5E;}
	.st170{fill:#FFBB6E;}
	.st171{opacity:0.6;fill:#F08000;}
	.st172{opacity:0.5;fill:#FFBB6E;}
	.st173{fill:#B0694B;}
	.st174{fill:#FFDBB3;}
	.st175{opacity:0.4;}
	.st176{fill:#F9CDA9;}
	.st177{fill:#F9BF90;}
	.st178{opacity:0.4;fill:#FFFBF0;}
	.st179{fill:none;stroke:#9B6A57;stroke-width:4.7126;stroke-linecap:round;stroke-linejoin:round;stroke-miterlimit:10;}
	.st180{opacity:0.3;fill:#FFCF9F;}
	.st181{fill:none;stroke:#9B6A57;stroke-width:4.713;stroke-linecap:round;stroke-linejoin:round;stroke-miterlimit:10;}
	.st182{fill:#755547;}
	.st183{fill:#AD7F69;}
	.st184{fill:#EAC5B5;}
	.st185{fill:none;stroke:#635651;stroke-width:2.5346;stroke-linecap:round;stroke-linejoin:round;stroke-miterlimit:10;}
	.st186{fill:none;stroke:#734F40;stroke-width:3.3794;stroke-linecap:round;stroke-linejoin:round;stroke-miterlimit:10;}
	.st187{fill:#D8AB9C;}
	.st188{fill:#FFEEE6;}
	.st189{opacity:0.25;fill:#FFDBB3;}
	.st190{fill:#FFCF9F;}
	.st191{fill:url(#SVGID_124_);}
	.st192{clip-path:url(#SVGID_126_);}
	
		.st193{fill:none;stroke:#DE7600;stroke-width:4.595;stroke-linecap:round;stroke-linejoin:round;stroke-dasharray:13.4097,13.4097;}
	
		.st194{fill:none;stroke:#F7BB72;stroke-width:2.2975;stroke-linecap:round;stroke-linejoin:round;stroke-miterlimit:10;stroke-dasharray:12.8342;}
	.st195{fill:none;stroke:#B89484;stroke-width:3.4463;stroke-linecap:round;stroke-linejoin:round;stroke-miterlimit:10;}
	.st196{clip-path:url(#SVGID_128_);}
	.st197{clip-path:url(#SVGID_130_);fill:#F29327;}
	.st198{clip-path:url(#SVGID_130_);}
	.st199{fill:none;stroke:#AD7F69;stroke-width:3.4463;stroke-linecap:round;stroke-linejoin:round;stroke-miterlimit:10;}
	.st200{clip-path:url(#SVGID_130_);fill:#AD7F69;}
	.st201{fill:#AB5C00;}
	.st202{fill:url(#SVGID_131_);}
	.st203{fill:#F78D2F;}
	.st204{fill:none;stroke:#BF917F;stroke-width:7.1447;stroke-linecap:round;stroke-linejoin:round;stroke-miterlimit:10;}
	.st205{fill:#EB6A00;}
	.st206{fill:#FCCD81;}
	.st207{fill:url(#SVGID_132_);}
	.st208{fill:url(#SVGID_133_);}
	.st209{fill:url(#SVGID_134_);}
	.st210{fill:url(#SVGID_135_);}
	.st211{fill:url(#SVGID_136_);}
	.st212{fill:url(#SVGID_137_);}
	.st213{fill:#FCE2B5;}
	.st214{fill:url(#SVGID_138_);}
	.st215{fill:url(#SVGID_139_);}
	.st216{fill:url(#SVGID_140_);}
	.st217{fill:url(#SVGID_141_);}
	.st218{fill:url(#SVGID_142_);}
	.st219{fill:url(#SVGID_143_);}
	.st220{fill:url(#SVGID_144_);}
	.st221{fill:url(#SVGID_145_);}
	.st222{fill:url(#SVGID_146_);}
	.st223{fill:url(#SVGID_147_);}
	.st224{fill:url(#SVGID_148_);}
	.st225{fill:url(#SVGID_149_);}
	.st226{fill:#FABF5F;}
	.st227{fill:url(#SVGID_150_);}
	.st228{fill:url(#SVGID_151_);}
	.st229{fill:url(#SVGID_152_);}
	.st230{fill:url(#SVGID_153_);}
	.st231{fill:url(#SVGID_154_);}
	.st232{fill:url(#SVGID_155_);}
	.st233{fill:url(#SVGID_156_);}
	.st234{fill:url(#SVGID_157_);}
	.st235{fill:url(#SVGID_158_);}
	.st236{fill:url(#SVGID_159_);}
	.st237{fill:url(#SVGID_160_);}
	.st238{fill:#FCD79A;}
	.st239{fill:#F9D3BD;}
	.st240{fill:#EAAB8F;}
	.st241{fill:none;stroke:#9B6A57;stroke-width:4.7074;stroke-linecap:round;stroke-linejoin:round;stroke-miterlimit:10;}
	.st242{opacity:0.5;fill:#EAAB8F;}
	.st243{fill:none;stroke:#9B6A57;stroke-width:4.7077;stroke-linecap:round;stroke-linejoin:round;stroke-miterlimit:10;}
	.st244{fill:none;stroke:#635651;stroke-width:2.5318;stroke-linecap:round;stroke-linejoin:round;stroke-miterlimit:10;}
	.st245{fill:none;stroke:#734F40;stroke-width:3.3757;stroke-linecap:round;stroke-linejoin:round;stroke-miterlimit:10;}
	.st246{fill:none;stroke:#FFFFFF;stroke-width:5.4588;stroke-linecap:round;stroke-linejoin:round;stroke-miterlimit:10;}
	.st247{fill:none;stroke:#FFFFFF;stroke-width:4.0941;stroke-linecap:round;stroke-linejoin:round;stroke-miterlimit:10;}
	.st248{fill:none;stroke:#FFFFFF;stroke-width:4.117;stroke-linecap:round;stroke-linejoin:round;stroke-miterlimit:10;}
	.st249{fill:none;stroke:#FF9E30;stroke-width:4.6605;stroke-linecap:round;stroke-linejoin:round;stroke-miterlimit:10;}
	.st250{opacity:0.15;fill:#FFEBB3;}
	.st251{opacity:0.2;fill:#FFEBB3;}
	.st252{opacity:0.8;fill:url(#SVGID_161_);}
	.st253{fill:#E0B9A4;}
	.st254{clip-path:url(#SVGID_163_);}
	.st255{fill:none;stroke:#BF917F;stroke-width:6.6928;stroke-linecap:round;stroke-linejoin:round;stroke-miterlimit:10;}
	.st256{fill:url(#SVGID_164_);}
	.st257{fill:url(#SVGID_165_);}
	.st258{fill:url(#SVGID_166_);}
	.st259{fill:url(#SVGID_167_);}
	.st260{fill:url(#SVGID_168_);}
	.st261{fill:url(#SVGID_169_);}
	.st262{fill:url(#SVGID_170_);}
	.st263{fill:url(#SVGID_171_);}
	.st264{fill:url(#SVGID_172_);}
	.st265{fill:url(#SVGID_173_);}
	.st266{fill:url(#SVGID_174_);}
	.st267{fill:url(#SVGID_175_);}
	.st268{fill:url(#SVGID_176_);}
	.st269{fill:url(#SVGID_177_);}
	.st270{fill:url(#SVGID_178_);}
	.st271{fill:url(#SVGID_179_);}
	.st272{fill:url(#SVGID_180_);}
	.st273{fill:url(#SVGID_181_);}
	.st274{fill:url(#SVGID_182_);}
	.st275{fill:url(#SVGID_183_);}
	.st276{fill:url(#SVGID_184_);}
	.st277{fill:url(#SVGID_185_);}
	.st278{fill:url(#SVGID_186_);}
	.st279{fill:url(#SVGID_187_);}
	.st280{fill:url(#SVGID_188_);}
	.st281{fill:url(#SVGID_189_);}
	.st282{fill:url(#SVGID_190_);}
	.st283{fill:url(#SVGID_191_);}
	.st284{fill:url(#SVGID_192_);}
</style>
<g>
	<path class="st0" d="M237.3,70.1c46.9,46.9,54.5,142.4,0,180.3C169,298,147.7,215.1,71.5,206.8C5.7,199.6,15.3,117,62.2,70.1
		S190.4,23.2,237.3,70.1z"/>
	<g>
		<defs>
			<path id="SVGID_120_" d="M237.3,70.1c46.9,46.9,54.5,142.4,0,180.3C169,298,147.7,215.1,71.5,206.8C5.7,199.6,15.3,117,62.2,70.1
				S190.4,23.2,237.3,70.1z"/>
		</defs>
		<clipPath id="SVGID_2_">
			<use xlink:href="#SVGID_120_"  style="overflow:visible;"/>
		</clipPath>
		<g class="st1">
			<path class="st2" d="M184.5,140.3c-6.4-28.4-11.2-78.7-34.5-78.7s-28.1,50.3-34.5,78.7c-8.9,39.3-34.5,37.5-34.5,63.7
				c0,18.1,14,22.3,28.7,24.1c15.3,1.8,20.6,13.1,40.3,13.1s25-11.3,40.3-13.1c14.8-1.8,28.7-6,28.7-24.1
				C219.1,177.8,193.5,179.7,184.5,140.3z"/>
			<path class="st2" d="M185.9,141.7c-6.4-28.4-11.2-78.7-34.5-78.7s-28.1,50.3-34.5,78.7c-8.9,39.3-34.5,37.5-34.5,63.7
				c0,18.1,14,22.3,28.7,24.1c15.3,1.8,20.6,13.1,40.3,13.1s25-11.3,40.3-13.1c14.8-1.8,28.7-6,28.7-24.1
				C220.5,179.2,194.9,181.1,185.9,141.7z"/>
			<path class="st2" d="M187.4,143.2c-6.4-28.4-11.2-78.7-34.5-78.7s-28.1,50.3-34.5,78.7c-8.9,39.3-34.5,37.5-34.5,63.7
				c0,18.1,14,22.3,28.7,24.1c15.3,1.8,20.6,13.1,40.3,13.1s25-11.3,40.3-13.1c14.8-1.8,28.7-6,28.7-24.1
				C221.9,180.6,196.3,182.5,187.4,143.2z"/>
			<path class="st2" d="M188.8,144.6c-6.4-28.4-11.2-78.7-34.5-78.7s-28.1,50.3-34.5,78.7c-8.9,39.3-34.5,37.5-34.5,63.7
				c0,18.1,14,22.3,28.7,24.1c15.3,1.8,20.6,13.1,40.3,13.1s25-11.3,40.3-13.1c14.8-1.8,28.7-6,28.7-24.1
				C223.3,182,197.7,183.9,188.8,144.6z"/>
			<path class="st2" d="M190.2,146c-6.4-28.4-11.2-78.7-34.5-78.7s-28.1,50.3-34.5,78.7c-8.9,39.3-34.5,37.5-34.5,63.7
				c0,18.1,14,22.3,28.7,24.1c15.3,1.8,20.6,13.1,40.3,13.1s25-11.3,40.3-13.1c14.8-1.8,28.7-6,28.7-24.1
				C224.7,183.5,199.1,185.3,190.2,146z"/>
			<path class="st2" d="M191.6,147.4c-6.4-28.4-11.2-78.7-34.5-78.7S129,119,122.5,147.4c-8.9,39.3-34.5,37.5-34.5,63.7
				c0,18.1,14,22.3,28.7,24.1c15.3,1.8,20.6,13.1,40.3,13.1s25-11.3,40.3-13.1c14.8-1.8,28.7-6,28.7-24.1
				C226.1,184.9,200.5,186.7,191.6,147.4z"/>
			<path class="st2" d="M193,148.8c-6.4-28.4-11.2-78.7-34.5-78.7s-28.1,50.3-34.5,78.7c-8.9,39.3-34.5,37.5-34.5,63.7
				c0,18.1,14,22.3,28.7,24.1c15.3,1.8,20.6,13.1,40.3,13.1s25-11.3,40.3-13.1c14.8-1.8,28.7-6,28.7-24.1
				C227.6,186.3,202,188.2,193,148.8z"/>
			<path class="st2" d="M194.4,150.2c-6.4-28.4-11.2-78.7-34.5-78.7s-28.1,50.3-34.5,78.7c-8.9,39.3-34.5,37.5-34.5,63.7
				c0,18.1,14,22.3,28.7,24.1c15.3,1.8,20.6,13.1,40.3,13.1s25-11.3,40.3-13.1c14.8-1.8,28.7-6,28.7-24.1
				C229,187.7,203.4,189.6,194.4,150.2z"/>
			<path class="st2" d="M195.9,151.6c-6.4-28.4-11.2-78.7-34.5-78.7s-28.1,50.3-34.5,78.7c-8.9,39.3-34.5,37.5-34.5,63.7
				c0,18.1,14,22.3,28.7,24.1c15.3,1.8,20.6,13.1,40.3,13.1s25-11.3,40.3-13.1c14.8-1.8,28.7-6,28.7-24.1
				C230.4,189.1,204.8,191,195.9,151.6z"/>
			<path class="st2" d="M197.3,153.1c-6.4-28.4-11.2-78.7-34.5-78.7s-28.1,50.3-34.5,78.7c-8.9,39.3-34.5,37.5-34.5,63.7
				c0,18.1,14,22.3,28.7,24.1c15.3,1.8,20.6,13.1,40.3,13.1s25-11.3,40.3-13.1c14.8-1.8,28.7-6,28.7-24.1
				C231.8,190.5,206.2,192.4,197.3,153.1z"/>
			<path class="st2" d="M198.7,154.5c-6.4-28.4-11.2-78.7-34.5-78.7s-28.1,50.3-34.5,78.7c-8.9,39.3-34.5,37.5-34.5,63.7
				c0,18.1,14,22.3,28.7,24.1c15.3,1.8,20.6,13.1,40.3,13.1s25-11.3,40.3-13.1c14.8-1.8,28.7-6,28.7-24.1
				C233.2,192,207.6,193.8,198.7,154.5z"/>
			<path class="st2" d="M200.1,155.9c-6.4-28.4-11.2-78.7-34.5-78.7s-28.1,50.3-34.5,78.7c-8.9,39.3-34.5,37.5-34.5,63.7
				c0,18.1,14,22.3,28.7,24.1c15.3,1.8,20.6,13.1,40.3,13.1s25-11.3,40.3-13.1c14.8-1.8,28.7-6,28.7-24.1
				C234.6,193.4,209,195.2,200.1,155.9z"/>
			<path class="st2" d="M201.5,157.3c-6.4-28.4-11.2-78.7-34.5-78.7s-28.1,50.3-34.5,78.7c-8.9,39.3-34.5,37.5-34.5,63.7
				c0,18.1,14,22.3,28.7,24.1c15.3,1.8,20.6,13.1,40.3,13.1s25-11.3,40.3-13.1c14.8-1.8,28.7-6,28.7-24.1
				C236.1,194.8,210.5,196.6,201.5,157.3z"/>
			<path class="st2" d="M202.9,158.7c-6.4-28.4-11.2-78.7-34.5-78.7s-28.1,50.3-34.5,78.7c-8.9,39.3-34.5,37.5-34.5,63.7
				c0,18.1,14,22.3,28.7,24.1c15.3,1.8,20.6,13.1,40.3,13.1s25-11.3,40.3-13.1c14.8-1.8,28.7-6,28.7-24.1
				C237.5,196.2,211.9,198.1,202.9,158.7z"/>
			<path class="st2" d="M204.4,160.1c-6.4-28.4-11.2-78.7-34.5-78.7s-28.1,50.3-34.5,78.7c-8.9,39.3-34.5,37.5-34.5,63.7
				c0,18.1,14,22.3,28.7,24.1c15.3,1.8,20.6,13.1,40.3,13.1s25-11.3,40.3-13.1c14.8-1.8,28.7-6,28.7-24.1
				C238.9,197.6,213.3,199.5,204.4,160.1z"/>
			<path class="st2" d="M205.8,161.6c-6.4-28.4-11.2-78.7-34.5-78.7s-28.1,50.3-34.5,78.7c-8.9,39.3-34.5,37.5-34.5,63.7
				c0,18.1,14,22.3,28.7,24.1c15.3,1.8,20.6,13.1,40.3,13.1s25-11.3,40.3-13.1c14.8-1.8,28.7-6,28.7-24.1
				C240.3,199,214.7,200.9,205.8,161.6z"/>
			<path class="st2" d="M207.2,163c-6.4-28.4-11.2-78.7-34.5-78.7s-28.1,50.3-34.5,78.7c-8.9,39.3-34.5,37.5-34.5,63.7
				c0,18.1,14,22.3,28.7,24.1c15.3,1.8,20.6,13.1,40.3,13.1s25-11.3,40.3-13.1c14.8-1.8,28.7-6,28.7-24.1
				C241.7,200.4,216.1,202.3,207.2,163z"/>
			<path class="st2" d="M208.6,164.4c-6.4-28.4-11.2-78.7-34.5-78.7S146,136,139.5,164.4c-8.9,39.3-34.5,37.5-34.5,63.7
				c0,18.1,14,22.3,28.7,24.1c15.3,1.8,20.6,13.1,40.3,13.1s25-11.3,40.3-13.1c14.8-1.8,28.7-6,28.7-24.1
				C243.1,201.9,217.5,203.7,208.6,164.4z"/>
			<path class="st2" d="M210,165.8c-6.4-28.4-11.2-78.7-34.5-78.7s-28.1,50.3-34.5,78.7c-8.9,39.3-34.5,37.5-34.5,63.7
				c0,18.1,14,22.3,28.7,24.1c15.3,1.8,20.6,13.1,40.3,13.1s25-11.3,40.3-13.1c14.8-1.8,28.7-6,28.7-24.1
				C244.5,203.3,218.9,205.1,210,165.8z"/>
			<path class="st2" d="M211.4,167.2c-6.4-28.4-11.2-78.7-34.5-78.7s-28.1,50.3-34.5,78.7c-8.9,39.3-34.5,37.5-34.5,63.7
				c0,18.1,14,22.3,28.7,24.1c15.3,1.8,20.6,13.1,40.3,13.1s25-11.3,40.3-13.1c14.8-1.8,28.7-6,28.7-24.1
				C246,204.7,220.4,206.6,211.4,167.2z"/>
			<path class="st2" d="M212.8,168.6c-6.4-28.4-11.2-78.7-34.5-78.7s-28.1,50.3-34.5,78.7c-8.9,39.3-34.5,37.5-34.5,63.7
				c0,18.1,14,22.3,28.7,24.1c15.3,1.8,20.6,13.1,40.3,13.1s25-11.3,40.3-13.1c14.8-1.8,28.7-6,28.7-24.1
				C247.4,206.1,221.8,208,212.8,168.6z"/>
			<path class="st2" d="M214.3,170.1c-6.4-28.4-11.2-78.7-34.5-78.7s-28.1,50.3-34.5,78.7c-8.9,39.3-34.5,37.5-34.5,63.7
				c0,18.1,14,22.3,28.7,24.1c15.3,1.8,20.6,13.1,40.3,13.1s25-11.3,40.3-13.1c14.8-1.8,28.7-6,28.7-24.1
				C248.8,207.5,223.2,209.4,214.3,170.1z"/>
			<path class="st2" d="M215.7,171.5c-6.4-28.4-11.2-78.7-34.5-78.7s-28.1,50.3-34.5,78.7c-8.9,39.3-34.5,37.5-34.5,63.7
				c0,18.1,14,22.3,28.7,24.1c15.3,1.8,20.6,13.1,40.3,13.1s25-11.3,40.3-13.1c14.8-1.8,28.7-6,28.7-24.1
				C250.2,208.9,224.6,210.8,215.7,171.5z"/>
			<path class="st2" d="M217.1,172.9c-6.4-28.4-11.2-78.7-34.5-78.7s-28.1,50.3-34.5,78.7c-8.9,39.3-34.5,37.5-34.5,63.7
				c0,18.1,14,22.3,28.7,24.1c15.3,1.8,20.6,13.1,40.3,13.1s25-11.3,40.3-13.1c14.8-1.8,28.7-6,28.7-24.1
				C251.6,210.4,226,212.2,217.1,172.9z"/>
			<path class="st2" d="M218.5,174.3c-6.4-28.4-11.2-78.7-34.5-78.7s-28.1,50.3-34.5,78.7c-8.9,39.3-34.5,37.5-34.5,63.7
				c0,18.1,14,22.3,28.7,24.1c15.3,1.8,20.6,13.1,40.3,13.1s25-11.3,40.3-13.1c14.8-1.8,28.7-6,28.7-24.1
				C253,211.8,227.4,213.6,218.5,174.3z"/>
			<path class="st2" d="M219.9,175.7c-6.4-28.4-11.2-78.7-34.5-78.7s-28.1,50.3-34.5,78.7c-8.9,39.3-34.5,37.5-34.5,63.7
				c0,18.1,14,22.3,28.7,24.1c15.3,1.8,20.6,13.1,40.3,13.1s25-11.3,40.3-13.1c14.8-1.8,28.7-6,28.7-24.1
				C254.5,213.2,228.9,215.1,219.9,175.7z"/>
			<path class="st2" d="M221.3,177.1c-6.4-28.4-11.2-78.7-34.5-78.7s-28.1,50.3-34.5,78.7c-8.9,39.3-34.5,37.5-34.5,63.7
				c0,18.1,14,22.3,28.7,24.1c15.3,1.8,20.6,13.1,40.3,13.1s25-11.3,40.3-13.1c14.8-1.8,28.7-6,28.7-24.1
				C255.9,214.6,230.3,216.5,221.3,177.1z"/>
			<path class="st2" d="M222.8,178.5c-6.4-28.4-11.2-78.7-34.5-78.7s-28.1,50.3-34.5,78.7c-8.9,39.3-34.5,37.5-34.5,63.7
				c0,18.1,14,22.3,28.7,24.1c15.3,1.8,20.6,13.1,40.3,13.1s25-11.3,40.3-13.1c14.8-1.8,28.7-6,28.7-24.1
				C257.3,216,231.7,217.9,222.8,178.5z"/>
			<path class="st2" d="M224.2,180c-6.4-28.4-11.2-78.7-34.5-78.7s-28.1,50.3-34.5,78.7c-8.9,39.3-34.5,37.5-34.5,63.7
				c0,18.1,14,22.3,28.7,24.1c15.3,1.8,20.6,13.1,40.3,13.1s25-11.3,40.3-13.1c14.8-1.8,28.7-6,28.7-24.1
				C258.7,217.4,233.1,219.3,224.2,180z"/>
			<path class="st2" d="M225.6,181.4c-6.4-28.4-11.2-78.7-34.5-78.7S163,153,156.5,181.4c-8.9,39.3-34.5,37.5-34.5,63.7
				c0,18.1,14,22.3,28.7,24.1c15.3,1.8,20.6,13.1,40.3,13.1s25-11.3,40.3-13.1c14.8-1.8,28.7-6,28.7-24.1
				C260.1,218.9,234.5,220.7,225.6,181.4z"/>
			<path class="st2" d="M227,182.8c-6.4-28.4-11.2-78.7-34.5-78.7s-28.1,50.3-34.5,78.7c-8.9,39.3-34.5,37.5-34.5,63.7
				c0,18.1,14,22.3,28.7,24.1c15.3,1.8,20.6,13.1,40.3,13.1s25-11.3,40.3-13.1c14.8-1.8,28.7-6,28.7-24.1
				C261.5,220.3,235.9,222.1,227,182.8z"/>
			<path class="st2" d="M228.4,184.2c-6.4-28.4-11.2-78.7-34.5-78.7s-28.1,50.3-34.5,78.7c-8.9,39.3-34.5,37.5-34.5,63.7
				c0,18.1,14,22.3,28.7,24.1c15.3,1.8,20.6,13.1,40.3,13.1s25-11.3,40.3-13.1c14.8-1.8,28.7-6,28.7-24.1
				C263,221.7,237.4,223.5,228.4,184.2z"/>
			<path class="st2" d="M229.8,185.6c-6.4-28.4-11.2-78.7-34.5-78.7s-28.1,50.3-34.5,78.7c-8.9,39.3-34.5,37.5-34.5,63.7
				c0,18.1,14,22.3,28.7,24.1c15.3,1.8,20.6,13.1,40.3,13.1s25-11.3,40.3-13.1c14.8-1.8,28.7-6,28.7-24.1
				C264.4,223.1,238.8,225,229.8,185.6z"/>
			<path class="st2" d="M231.3,187c-6.4-28.4-11.2-78.7-34.5-78.7s-28.1,50.3-34.5,78.7c-8.9,39.3-34.5,37.5-34.5,63.7
				c0,18.1,14,22.3,28.7,24.1c15.3,1.8,20.6,13.1,40.3,13.1s25-11.3,40.3-13.1c14.8-1.8,28.7-6,28.7-24.1
				C265.8,224.5,240.2,226.4,231.3,187z"/>
			<path class="st2" d="M232.7,188.5c-6.4-28.4-11.2-78.7-34.5-78.7s-28.1,50.3-34.5,78.7c-8.9,39.3-34.5,37.5-34.5,63.7
				c0,18.1,14,22.3,28.7,24.1c15.3,1.8,20.6,13.1,40.3,13.1s25-11.3,40.3-13.1c14.8-1.8,28.7-6,28.7-24.1
				C267.2,225.9,241.6,227.8,232.7,188.5z"/>
			<path class="st2" d="M234.1,189.9c-6.4-28.4-11.2-78.7-34.5-78.7s-28.1,50.3-34.5,78.7c-8.9,39.3-34.5,37.5-34.5,63.7
				c0,18.1,14,22.3,28.7,24.1c15.3,1.8,20.6,13.1,40.3,13.1s25-11.3,40.3-13.1c14.8-1.8,28.7-6,28.7-24.1
				C268.6,227.3,243,229.2,234.1,189.9z"/>
			<path class="st2" d="M235.5,191.3c-6.4-28.4-11.2-78.7-34.5-78.7s-28.1,50.3-34.5,78.7c-8.9,39.3-34.5,37.5-34.5,63.7
				c0,18.1,14,22.3,28.7,24.1c15.3,1.8,20.6,13.1,40.3,13.1s25-11.3,40.3-13.1c14.8-1.8,28.7-6,28.7-24.1
				C270,228.8,244.4,230.6,235.5,191.3z"/>
			<path class="st2" d="M236.9,192.7c-6.4-28.4-11.2-78.7-34.5-78.7s-28.1,50.3-34.5,78.7c-8.9,39.3-34.5,37.5-34.5,63.7
				c0,18.1,14,22.3,28.7,24.1c15.3,1.8,20.6,13.1,40.3,13.1s25-11.3,40.3-13.1c14.8-1.8,28.7-6,28.7-24.1
				C271.4,230.2,245.8,232,236.9,192.7z"/>
			<path class="st2" d="M238.3,194.1c-6.4-28.4-11.2-78.7-34.5-78.7s-28.1,50.3-34.5,78.7c-8.9,39.3-34.5,37.5-34.5,63.7
				c0,18.1,14,22.3,28.7,24.1c15.3,1.8,20.6,13.1,40.3,13.1s25-11.3,40.3-13.1c14.8-1.8,28.7-6,28.7-24.1
				C272.9,231.6,247.3,233.5,238.3,194.1z"/>
			<path class="st2" d="M239.7,195.5c-6.4-28.4-11.2-78.7-34.5-78.7s-28.1,50.3-34.5,78.7c-8.9,39.3-34.5,37.5-34.5,63.7
				c0,18.1,14,22.3,28.7,24.1c15.3,1.8,20.6,13.1,40.3,13.1s25-11.3,40.3-13.1c14.8-1.8,28.7-6,28.7-24.1
				C274.3,233,248.7,234.9,239.7,195.5z"/>
			<path class="st2" d="M241.2,197c-6.4-28.4-11.2-78.7-34.5-78.7s-28.1,50.3-34.5,78.7c-8.9,39.3-34.5,37.5-34.5,63.7
				c0,18.1,14,22.3,28.7,24.1c15.3,1.8,20.6,13.1,40.3,13.1s25-11.3,40.3-13.1c14.8-1.8,28.7-6,28.7-24.1
				C275.7,234.4,250.1,236.3,241.2,197z"/>
			<path class="st2" d="M242.6,198.4c-6.4-28.4-11.2-78.7-34.5-78.7S180,170,173.5,198.4c-8.9,39.3-34.5,37.5-34.5,63.7
				c0,18.1,14,22.3,28.7,24.1c15.3,1.8,20.6,13.1,40.3,13.1s25-11.3,40.3-13.1c14.8-1.8,28.7-6,28.7-24.1
				C277.1,235.8,251.5,237.7,242.6,198.4z"/>
			<path class="st2" d="M244,199.8c-6.4-28.4-11.2-78.7-34.5-78.7s-28.1,50.3-34.5,78.7c-8.9,39.3-34.5,37.5-34.5,63.7
				c0,18.1,14,22.3,28.7,24.1c15.3,1.8,20.6,13.1,40.3,13.1s25-11.3,40.3-13.1c14.8-1.8,28.7-6,28.7-24.1
				C278.5,237.3,252.9,239.1,244,199.8z"/>
			<path class="st2" d="M245.4,201.2c-6.4-28.4-11.2-78.7-34.5-78.7s-28.1,50.3-34.5,78.7c-8.9,39.3-34.5,37.5-34.5,63.7
				c0,18.1,14,22.3,28.7,24.1c15.3,1.8,20.6,13.1,40.3,13.1s25-11.3,40.3-13.1c14.8-1.8,28.7-6,28.7-24.1
				C279.9,238.7,254.3,240.5,245.4,201.2z"/>
			<path class="st2" d="M246.8,202.6c-6.4-28.4-11.2-78.7-34.5-78.7s-28.1,50.3-34.5,78.7c-8.9,39.3-34.5,37.5-34.5,63.7
				c0,18.1,14,22.3,28.7,24.1c15.3,1.8,20.6,13.1,40.3,13.1s25-11.3,40.3-13.1c14.8-1.8,28.7-6,28.7-24.1
				C281.4,240.1,255.8,242,246.8,202.6z"/>
			<path class="st2" d="M248.2,204c-6.4-28.4-11.2-78.7-34.5-78.7s-28.1,50.3-34.5,78.7c-8.9,39.3-34.5,37.5-34.5,63.7
				c0,18.1,14,22.3,28.7,24.1c15.3,1.8,20.6,13.1,40.3,13.1s25-11.3,40.3-13.1c14.8-1.8,28.7-6,28.7-24.1
				C282.8,241.5,257.2,243.4,248.2,204z"/>
			<path class="st2" d="M249.7,205.4c-6.4-28.4-11.2-78.7-34.5-78.7S187,177,180.6,205.4c-8.9,39.3-34.5,37.5-34.5,63.7
				c0,18.1,14,22.3,28.7,24.1c15.3,1.8,20.6,13.1,40.3,13.1s25-11.3,40.3-13.1c14.8-1.8,28.7-6,28.7-24.1
				C284.2,242.9,258.6,244.8,249.7,205.4z"/>
			<path class="st2" d="M251.1,206.9c-6.4-28.4-11.2-78.7-34.5-78.7s-28.1,50.3-34.5,78.7c-8.9,39.3-34.5,37.5-34.5,63.7
				c0,18.1,14,22.3,28.7,24.1c15.3,1.8,20.6,13.1,40.3,13.1s25-11.3,40.3-13.1c14.8-1.8,28.7-6,28.7-24.1
				C285.6,244.3,260,246.2,251.1,206.9z"/>
			<path class="st2" d="M252.5,208.3c-6.4-28.4-11.2-78.7-34.5-78.7s-28.1,50.3-34.5,78.7c-8.9,39.3-34.5,37.5-34.5,63.7
				c0,18.1,14,22.3,28.7,24.1c15.3,1.8,20.6,13.1,40.3,13.1s25-11.3,40.3-13.1c14.8-1.8,28.7-6,28.7-24.1
				C287,245.8,261.4,247.6,252.5,208.3z"/>
			<path class="st2" d="M253.9,209.7c-6.4-28.4-11.2-78.7-34.5-78.7s-28.1,50.3-34.5,78.7c-8.9,39.3-34.5,37.5-34.5,63.7
				c0,18.1,14,22.3,28.7,24.1c15.3,1.8,20.6,13.1,40.3,13.1s25-11.3,40.3-13.1c14.8-1.8,28.7-6,28.7-24.1
				C288.4,247.2,262.8,249,253.9,209.7z"/>
			<path class="st2" d="M255.3,211.1c-6.4-28.4-11.2-78.7-34.5-78.7s-28.1,50.3-34.5,78.7c-8.9,39.3-34.5,37.5-34.5,63.7
				c0,18.1,14,22.3,28.7,24.1c15.3,1.8,20.6,13.1,40.3,13.1s25-11.3,40.3-13.1c14.8-1.8,28.7-6,28.7-24.1
				C289.9,248.6,264.3,250.4,255.3,211.1z"/>
			<path class="st2" d="M256.7,212.5c-6.4-28.4-11.2-78.7-34.5-78.7s-28.1,50.3-34.5,78.7c-8.9,39.3-34.5,37.5-34.5,63.7
				c0,18.1,14,22.3,28.7,24.1c15.3,1.8,20.6,13.1,40.3,13.1s25-11.3,40.3-13.1c14.8-1.8,28.7-6,28.7-24.1
				C291.3,250,265.7,251.9,256.7,212.5z"/>
			<path class="st2" d="M258.2,213.9c-6.4-28.4-11.2-78.7-34.5-78.7s-28.1,50.3-34.5,78.7c-8.9,39.3-34.5,37.5-34.5,63.7
				c0,18.1,14,22.3,28.7,24.1c15.3,1.8,20.6,13.1,40.3,13.1s25-11.3,40.3-13.1c14.8-1.8,28.7-6,28.7-24.1
				C292.7,251.4,267.1,253.3,258.2,213.9z"/>
			<path class="st2" d="M259.6,215.4c-6.4-28.4-11.2-78.7-34.5-78.7S197,187,190.5,215.4c-8.9,39.3-34.5,37.5-34.5,63.7
				c0,18.1,14,22.3,28.7,24.1c15.3,1.8,20.6,13.1,40.3,13.1s25-11.3,40.3-13.1c14.8-1.8,28.7-6,28.7-24.1
				C294.1,252.8,268.5,254.7,259.6,215.4z"/>
			<path class="st2" d="M261,216.8c-6.4-28.4-11.2-78.7-34.5-78.7s-28.1,50.3-34.5,78.7c-8.9,39.3-34.5,37.5-34.5,63.7
				c0,18.1,14,22.3,28.7,24.1c15.3,1.8,20.6,13.1,40.3,13.1s25-11.3,40.3-13.1c14.8-1.8,28.7-6,28.7-24.1
				C295.5,254.2,269.9,256.1,261,216.8z"/>
			<path class="st2" d="M262.4,218.2c-6.4-28.4-11.2-78.7-34.5-78.7s-28.1,50.3-34.5,78.7c-8.9,39.3-34.5,37.5-34.5,63.7
				c0,18.1,14,22.3,28.7,24.1c15.3,1.8,20.6,13.1,40.3,13.1s25-11.3,40.3-13.1c14.8-1.8,28.7-6,28.7-24.1
				C296.9,255.7,271.3,257.5,262.4,218.2z"/>
			<path class="st2" d="M263.8,219.6c-6.4-28.4-11.2-78.7-34.5-78.7s-28.1,50.3-34.5,78.7c-8.9,39.3-34.5,37.5-34.5,63.7
				c0,18.1,14,22.3,28.7,24.1c15.3,1.8,20.6,13.1,40.3,13.1s25-11.3,40.3-13.1c14.8-1.8,28.7-6,28.7-24.1
				C298.3,257.1,272.7,258.9,263.8,219.6z"/>
			<path class="st2" d="M265.2,221c-6.4-28.4-11.2-78.7-34.5-78.7s-28.1,50.3-34.5,78.7c-8.9,39.3-34.5,37.5-34.5,63.7
				c0,18.1,14,22.3,28.7,24.1c15.3,1.8,20.6,13.1,40.3,13.1s25-11.3,40.3-13.1c14.8-1.8,28.7-6,28.7-24.1
				C299.8,258.5,274.2,260.4,265.2,221z"/>
			<path class="st2" d="M266.6,222.4c-6.4-28.4-11.2-78.7-34.5-78.7S204,194,197.6,222.4c-8.9,39.3-34.5,37.5-34.5,63.7
				c0,18.1,14,22.3,28.7,24.1c15.3,1.8,20.6,13.1,40.3,13.1s25-11.3,40.3-13.1c14.8-1.8,28.7-6,28.7-24.1
				C301.2,259.9,275.6,261.8,266.6,222.4z"/>
			<path class="st2" d="M268.1,223.9c-6.4-28.4-11.2-78.7-34.5-78.7s-28.1,50.3-34.5,78.7c-8.9,39.3-34.5,37.5-34.5,63.7
				c0,18.1,14,22.3,28.7,24.1c15.3,1.8,20.6,13.1,40.3,13.1s25-11.3,40.3-13.1c14.8-1.8,28.7-6,28.7-24.1
				C302.6,261.3,277,263.2,268.1,223.9z"/>
			<path class="st2" d="M269.5,225.3c-6.4-28.4-11.2-78.7-34.5-78.7s-28.1,50.3-34.5,78.7c-8.9,39.3-34.5,37.5-34.5,63.7
				c0,18.1,14,22.3,28.7,24.1c15.3,1.8,20.6,13.1,40.3,13.1s25-11.3,40.3-13.1c14.8-1.8,28.7-6,28.7-24.1
				C304,262.7,278.4,264.6,269.5,225.3z"/>
			<path class="st2" d="M270.9,226.7c-6.4-28.4-11.2-78.7-34.5-78.7s-28.1,50.3-34.5,78.7c-8.9,39.3-34.5,37.5-34.5,63.7
				c0,18.1,14,22.3,28.7,24.1c15.3,1.8,20.6,13.1,40.3,13.1s25-11.3,40.3-13.1c14.8-1.8,28.7-6,28.7-24.1
				C305.4,264.2,279.8,266,270.9,226.7z"/>
			<path class="st2" d="M272.3,228.1c-6.4-28.4-11.2-78.7-34.5-78.7c-23.3,0-28.1,50.3-34.5,78.7c-8.9,39.3-34.5,37.5-34.5,63.7
				c0,18.1,14,22.3,28.7,24.1c15.3,1.8,20.6,13.1,40.3,13.1s25-11.3,40.3-13.1c14.8-1.8,28.7-6,28.7-24.1
				C306.8,265.6,281.2,267.4,272.3,228.1z"/>
			<path class="st2" d="M273.7,229.5c-6.4-28.4-11.2-78.7-34.5-78.7s-28.1,50.3-34.5,78.7c-8.9,39.3-34.5,37.5-34.5,63.7
				c0,18.1,14,22.3,28.7,24.1c15.3,1.8,20.6,13.1,40.3,13.1s25-11.3,40.3-13.1c14.8-1.8,28.7-6,28.7-24.1
				C308.3,267,282.7,268.9,273.7,229.5z"/>
			<path class="st2" d="M275.1,230.9c-6.4-28.4-11.2-78.7-34.5-78.7s-28.1,50.3-34.5,78.7c-8.9,39.3-34.5,37.5-34.5,63.7
				c0,18.1,14,22.3,28.7,24.1c15.3,1.8,20.6,13.1,40.3,13.1s25-11.3,40.3-13.1c14.8-1.8,28.7-6,28.7-24.1
				C309.7,268.4,284.1,270.3,275.1,230.9z"/>
			<path class="st2" d="M276.6,232.3c-6.4-28.4-11.2-78.7-34.5-78.7s-28.1,50.3-34.5,78.7c-8.9,39.3-34.5,37.5-34.5,63.7
				c0,18.1,14,22.3,28.7,24.1c15.3,1.8,20.6,13.1,40.3,13.1s25-11.3,40.3-13.1c14.8-1.8,28.7-6,28.7-24.1
				C311.1,269.8,285.5,271.7,276.6,232.3z"/>
			<path class="st2" d="M278,233.8c-6.4-28.4-11.2-78.7-34.5-78.7s-28.1,50.3-34.5,78.7c-8.9,39.3-34.5,37.5-34.5,63.7
				c0,18.1,14,22.3,28.7,24.1c15.3,1.8,20.6,13.1,40.3,13.1s25-11.3,40.3-13.1c14.8-1.8,28.7-6,28.7-24.1
				C312.5,271.2,286.9,273.1,278,233.8z"/>
			<path class="st2" d="M279.4,235.2c-6.4-28.4-11.2-78.7-34.5-78.7s-28.1,50.3-34.5,78.7c-8.9,39.3-34.5,37.5-34.5,63.7
				c0,18.1,14,22.3,28.7,24.1c15.3,1.8,20.6,13.1,40.3,13.1s25-11.3,40.3-13.1c14.8-1.8,28.7-6,28.7-24.1
				C313.9,272.7,288.3,274.5,279.4,235.2z"/>
			<path class="st2" d="M280.8,236.6c-6.4-28.4-11.2-78.7-34.5-78.7s-28.1,50.3-34.5,78.7c-8.9,39.3-34.5,37.5-34.5,63.7
				c0,18.1,14,22.3,28.7,24.1c15.3,1.8,20.6,13.1,40.3,13.1s25-11.3,40.3-13.1c14.8-1.8,28.7-6,28.7-24.1
				C315.3,274.1,289.7,275.9,280.8,236.6z"/>
			<path class="st2" d="M282.2,238c-6.4-28.4-11.2-78.7-34.5-78.7s-28.1,50.3-34.5,78.7c-8.9,39.3-34.5,37.5-34.5,63.7
				c0,18.1,14,22.3,28.7,24.1c15.3,1.8,20.6,13.1,40.3,13.1s25-11.3,40.3-13.1c14.8-1.8,28.7-6,28.7-24.1
				C316.8,275.5,291.2,277.3,282.2,238z"/>
			<path class="st2" d="M283.6,239.4c-6.4-28.4-11.2-78.7-34.5-78.7S221,211,214.6,239.4c-8.9,39.3-34.5,37.5-34.5,63.7
				c0,18.1,14,22.3,28.7,24.1c15.3,1.8,20.6,13.1,40.3,13.1s25-11.3,40.3-13.1c14.8-1.8,28.7-6,28.7-24.1
				C318.2,276.9,292.6,278.8,283.6,239.4z"/>
			<path class="st2" d="M285.1,240.8c-6.4-28.4-11.2-78.7-34.5-78.7s-28.1,50.3-34.5,78.7c-8.9,39.3-34.5,37.5-34.5,63.7
				c0,18.1,14,22.3,28.7,24.1c15.3,1.8,20.6,13.1,40.3,13.1s25-11.3,40.3-13.1c14.8-1.8,28.7-6,28.7-24.1
				C319.6,278.3,294,280.2,285.1,240.8z"/>
			<path class="st2" d="M286.5,242.3c-6.4-28.4-11.2-78.7-34.5-78.7s-28.1,50.3-34.5,78.7c-8.9,39.3-34.5,37.5-34.5,63.7
				c0,18.1,14,22.3,28.7,24.1c15.3,1.8,20.6,13.1,40.3,13.1s25-11.3,40.3-13.1c14.8-1.8,28.7-6,28.7-24.1
				C321,279.7,295.4,281.6,286.5,242.3z"/>
			<path class="st2" d="M287.9,243.7c-6.4-28.4-11.2-78.7-34.5-78.7s-28.1,50.3-34.5,78.7c-8.9,39.3-34.5,37.5-34.5,63.7
				c0,18.1,14,22.3,28.7,24.1c15.3,1.8,20.6,13.1,40.3,13.1s25-11.3,40.3-13.1c14.8-1.8,28.7-6,28.7-24.1
				C322.4,281.1,296.8,283,287.9,243.7z"/>
			<path class="st2" d="M289.3,245.1c-6.4-28.4-11.2-78.7-34.5-78.7s-28.1,50.3-34.5,78.7c-8.9,39.3-34.5,37.5-34.5,63.7
				c0,18.1,14,22.3,28.7,24.1c15.3,1.8,20.6,13.1,40.3,13.1s25-11.3,40.3-13.1c14.8-1.8,28.7-6,28.7-24.1
				C323.8,282.6,298.2,284.4,289.3,245.1z"/>
			<path class="st2" d="M290.7,246.5c-6.4-28.4-11.2-78.7-34.5-78.7s-28.1,50.3-34.5,78.7c-8.9,39.3-34.5,37.5-34.5,63.7
				c0,18.1,14,22.3,28.7,24.1c15.3,1.8,20.6,13.1,40.3,13.1s25-11.3,40.3-13.1c14.8-1.8,28.7-6,28.7-24.1
				C325.2,284,299.6,285.8,290.7,246.5z"/>
			<path class="st2" d="M292.1,247.9c-6.4-28.4-11.2-78.7-34.5-78.7s-28.1,50.3-34.5,78.7c-8.9,39.3-34.5,37.5-34.5,63.7
				c0,18.1,14,22.3,28.7,24.1c15.3,1.8,20.6,13.1,40.3,13.1c19.7,0,25-11.3,40.3-13.1c14.8-1.8,28.7-6,28.7-24.1
				C326.7,285.4,301.1,287.3,292.1,247.9z"/>
			<path class="st2" d="M293.5,249.3c-6.4-28.4-11.2-78.7-34.5-78.7s-28.1,50.3-34.5,78.7c-8.9,39.3-34.5,37.5-34.5,63.7
				c0,18.1,14,22.3,28.7,24.1c15.3,1.8,20.6,13.1,40.3,13.1c19.7,0,25-11.3,40.3-13.1c14.8-1.8,28.7-6,28.7-24.1
				C328.1,286.8,302.5,288.7,293.5,249.3z"/>
			<path class="st2" d="M295,250.8c-6.4-28.4-11.2-78.7-34.5-78.7s-28.1,50.3-34.5,78.7c-8.9,39.3-34.5,37.5-34.5,63.7
				c0,18.1,14,22.3,28.7,24.1c15.3,1.8,20.6,13.1,40.3,13.1c19.7,0,25-11.3,40.3-13.1c14.8-1.8,28.7-6,28.7-24.1
				C329.5,288.2,303.9,290.1,295,250.8z"/>
			<path class="st2" d="M296.4,252.2c-6.4-28.4-11.2-78.7-34.5-78.7s-28.1,50.3-34.5,78.7c-8.9,39.3-34.5,37.5-34.5,63.7
				c0,18.1,14,22.3,28.7,24.1c15.3,1.8,20.6,13.1,40.3,13.1s25-11.3,40.3-13.1c14.8-1.8,28.7-6,28.7-24.1
				C330.9,289.6,305.3,291.5,296.4,252.2z"/>
			<path class="st2" d="M297.8,253.6c-6.4-28.4-11.2-78.7-34.5-78.7s-28.1,50.3-34.5,78.7c-8.9,39.3-34.5,37.5-34.5,63.7
				c0,18.1,14,22.3,28.7,24.1c15.3,1.8,20.6,13.1,40.3,13.1s25-11.3,40.3-13.1c14.8-1.8,28.7-6,28.7-24.1
				C332.3,291.1,306.7,292.9,297.8,253.6z"/>
			<path class="st2" d="M299.2,255c-6.4-28.4-11.2-78.7-34.5-78.7s-28.1,50.3-34.5,78.7c-8.9,39.3-34.5,37.5-34.5,63.7
				c0,18.1,14,22.3,28.7,24.1c15.3,1.8,20.6,13.1,40.3,13.1c19.7,0,25-11.3,40.3-13.1c14.8-1.8,28.7-6,28.7-24.1
				C333.7,292.5,308.1,294.3,299.2,255z"/>
			<path class="st2" d="M300.6,256.4c-6.4-28.4-11.2-78.7-34.5-78.7S238,228,231.6,256.4c-8.9,39.3-34.5,37.5-34.5,63.7
				c0,18.1,14,22.3,28.7,24.1c15.3,1.8,20.6,13.1,40.3,13.1c19.7,0,25-11.3,40.3-13.1c14.8-1.8,28.7-6,28.7-24.1
				C335.2,293.9,309.6,295.8,300.6,256.4z"/>
			<path class="st2" d="M302,257.8c-6.4-28.4-11.2-78.7-34.5-78.7s-28.1,50.3-34.5,78.7c-8.9,39.3-34.5,37.5-34.5,63.7
				c0,18.1,14,22.3,28.7,24.1c15.3,1.8,20.6,13.1,40.3,13.1s25-11.3,40.3-13.1c14.8-1.8,28.7-6,28.7-24.1
				C336.6,295.3,311,297.2,302,257.8z"/>
			<path class="st2" d="M303.5,259.2c-6.4-28.4-11.2-78.7-34.5-78.7s-28.1,50.3-34.5,78.7c-8.9,39.3-34.5,37.5-34.5,63.7
				c0,18.1,14,22.3,28.7,24.1c15.3,1.8,20.6,13.1,40.3,13.1s25-11.3,40.3-13.1c14.8-1.8,28.7-6,28.7-24.1
				C338,296.7,312.4,298.6,303.5,259.2z"/>
		</g>
	</g>
	<path class="st151" d="M184.5,140.3c-6.4-28.4-11.2-78.7-34.5-78.7s-28.1,50.3-34.5,78.7c-8.9,39.3-34.5,37.5-34.5,63.7
		c0,18.1,14,22.3,28.7,24.1c15.3,1.8,20.6,13.1,40.3,13.1s25-11.3,40.3-13.1c14.8-1.8,28.7-6,28.7-24.1
		C219.1,177.8,193.5,179.7,184.5,140.3z"/>
	<path class="st156" d="M184.5,140.3c-6.4-28.4-11.2-78.7-34.5-78.7c-0.4,0-0.8,0.1-1.3,0.1c13.7,17.4,18.2,56.8,23.8,81.6
		c10.3,45.2,39.7,43.1,39.7,73.2c0,1.6-0.1,3-0.3,4.4c4.4-3.6,7.1-8.9,7.1-16.9C219.1,177.8,193.5,179.7,184.5,140.3z"/>
	<g>
		<path class="st81" d="M80.9,204c0.3,3.5,1,7,2.6,10.1c1.6,3,4,5.5,6.9,7.2c2.9,1.7,6.2,2.8,9.5,3.5c3.4,0.7,6.8,1.2,10.3,1.5
			c1.9,0.2,3.7,0.5,5.5,1c1.8,0.5,3.6,1.2,5.3,1.9c3.4,1.5,6.5,3.3,9.6,4.8c3.1,1.5,6.2,2.8,9.4,3.6c3.2,0.8,6.6,1.1,9.9,1.1
			c3.4,0,6.7-0.3,9.9-1.1c3.2-0.8,6.3-2.1,9.4-3.6c3.1-1.5,6.2-3.3,9.6-4.8c1.7-0.7,3.4-1.4,5.3-1.9c1.8-0.5,3.7-0.9,5.5-1
			c3.5-0.3,6.9-0.8,10.3-1.5c3.3-0.7,6.6-1.8,9.5-3.5c2.9-1.7,5.3-4.1,6.9-7.2c1.6-3,2.4-6.5,2.7-10.1c0.1,1.8,0.1,3.6-0.1,5.4
			c-0.2,1.8-0.6,3.6-1.3,5.3c-1.3,3.4-3.8,6.5-6.8,8.6c-3.1,2.2-6.5,3.6-10,4.6c-3.5,1-7.1,1.7-10.6,2.2c-3.3,0.5-6.4,1.6-9.5,3.1
			c-3.1,1.5-6,3.3-9.2,5c-3.2,1.7-6.7,3.2-10.3,4.1c-3.6,1-7.4,1.4-11.1,1.4c-3.7,0-7.5-0.4-11.1-1.4c-3.6-0.9-7.1-2.4-10.3-4.1
			c-3.2-1.7-6.2-3.6-9.2-5c-3.1-1.5-6.2-2.5-9.5-3.1c-3.5-0.5-7.1-1.1-10.6-2.2c-3.5-1-7-2.5-10-4.6c-3-2.2-5.5-5.2-6.8-8.6
			c-0.7-1.7-1.1-3.5-1.3-5.3C80.8,207.6,80.8,205.8,80.9,204z"/>
	</g>
	<g>
		<path class="st81" d="M109.7,219.5c2-0.4,4-0.3,6,0.2c2,0.5,3.9,1.5,5.6,2.5c3.5,2.2,6.4,5,9.4,7.5c2.9,2.5,5.9,4.9,9.1,6.5
			c3.2,1.6,6.7,2.5,10.3,2.4c3.6,0,7-0.9,10.2-2.6c3.2-1.7,6.1-4.1,9-6.7c2.9-2.6,5.8-5.4,9.3-7.6c1.8-1.1,3.7-2,5.7-2.5
			c2-0.5,4.1-0.4,6.1,0.1c-2,0-3.9,0.5-5.6,1.2c-1.7,0.8-3.3,1.9-4.7,3.1c-2.9,2.5-5.3,5.5-8.1,8.4c-2.7,2.9-5.7,5.8-9.4,8
			c-1.8,1.1-3.9,2-6,2.6c-2.1,0.6-4.3,0.9-6.5,0.9c-2.2,0-4.3-0.2-6.5-0.8c-2.1-0.6-4.1-1.4-6-2.4c-3.8-2.1-6.8-5-9.6-7.9
			c-2.8-2.9-5.2-5.9-8.1-8.4c-1.4-1.3-3-2.4-4.7-3.2C113.5,220.2,111.6,219.7,109.7,219.5z"/>
	</g>
	<g>
		<g>
			<g>
				<path class="st18" d="M176.8,136l6.3,0.4c3.1,0.2,5.9-2.3,6-5.5l0.1-1c0.1-1.1,0.9-1.9,2-1.8c10.6,0.8,20.8,1.8,30.7,3.3
					c0.6,0.1,1.1,0.5,1.4,1l5.6,11.4c0.4,0.9-0.2,2-1.2,1.9l-10.2-0.6l-41.1-4.6L176.8,136z"/>
				<path class="st18" d="M120.7,136l-6.3,0.4c-3.1,0.2-5.9-2.3-6-5.5l-0.1-1c-0.1-1.1-0.9-1.9-2-1.8c-10.6,0.8-20.8,1.8-30.7,3.3
					c-0.6,0.1-1.1,0.5-1.4,1l-5.6,11.4c-0.4,0.9,0.2,2,1.2,1.9l10.2-0.6l41.1-4.6L120.7,136z"/>
				<path class="st19" d="M121.2,140.5l-0.5-4.5l-6.3,0.4c-1.3,0.1-2.6-0.3-3.6-1.1c-9.8,0.7-19.5,1.5-29.2,2.7
					c-2.7,0.3-4.7,2.9-4.4,5.7c0.1,0.6,0.2,1.1,0.5,1.6l2.4-0.1L121.2,140.5z"/>
				<path class="st19" d="M220.3,145.3c0.2-0.5,0.4-1.1,0.5-1.7c0.3-2.8-1.6-5.4-4.4-5.7c-9.9-1.2-19.8-2-29.7-2.7
					c-1,0.8-2.3,1.2-3.7,1.1l-6.3-0.4l-0.5,4.5l41.1,4.6L220.3,145.3z"/>
				<path class="st18" d="M118.5,169.7l-4.7,0.4c-3.6,0.3-6.4,3.9-6.1,8v0c0.1,1.6-0.9,3-2.3,3.2c-9.8,0.6-19.8,1.9-30,3.8
					c-0.6,0.1-1.2-0.2-1.5-0.8c-1.4-3.6-3.4-7.2-5.9-10.8c-0.6-1,0-2.4,1-2.6c3.3-1.2,6.8-2,10.7-2.3l37.9-4.3L118.5,169.7z"/>
				<path class="st18" d="M82.1,151c-2.5,0-4.6-1.9-4.9-4.5c-0.3-2.8,1.6-5.4,4.4-5.7c44.7-5.3,90.1-5.3,134.9-0.1
					c2.7,0.3,4.7,2.9,4.4,5.7c-0.3,2.8-2.8,4.8-5.5,4.5c-44-5.2-88.6-5.2-132.6,0.1C82.5,151,82.3,151,82.1,151z"/>
				<path class="st18" d="M179,169.7l4.7,0.4c3.6,0.3,6.4,3.9,6.1,8v0c-0.1,1.6,0.9,3,2.3,3.2c9.8,0.6,19.8,1.9,30,3.8
					c0.6,0.1,1.2-0.2,1.5-0.8c1.4-3.6,3.4-7.2,5.9-10.8c0.6-1,0-2.4-1-2.6c-3.3-1.2-6.8-2-10.7-2.3l-37.9-4.3L179,169.7z"/>
				<path class="st18" d="M82.1,162.6c-2.5,0-4.6-1.9-4.9-4.5c-0.3-2.8,1.6-5.4,4.4-5.7c44.7-5.3,90.1-5.3,134.9-0.1
					c2.7,0.3,4.7,2.9,4.4,5.7c-0.3,2.8-2.8,4.8-5.5,4.5c-44-5.2-88.6-5.2-132.6,0.1C82.5,162.6,82.3,162.6,82.1,162.6z"/>
				<path class="st19" d="M82.1,149.6c-2.5,0-4.6-1.9-4.9-4.5c-0.3-2.8,1.6-5.4,4.4-5.7c44.7-5.3,90.1-5.3,134.9-0.1
					c2.7,0.3,4.7,2.9,4.4,5.7c-0.3,2.8-2.8,4.8-5.5,4.5c-44-5.2-88.6-5.2-132.6,0.1C82.5,149.6,82.3,149.6,82.1,149.6z"/>
				<path class="st19" d="M82.1,161.2c-2.5,0-4.6-1.9-4.9-4.5c-0.3-2.8,1.6-5.4,4.4-5.7c44.7-5.3,90.1-5.3,134.9-0.1
					c2.7,0.3,4.7,2.9,4.4,5.7c-0.3,2.8-2.8,4.8-5.5,4.5c-44-5.2-88.6-5.2-132.6,0.1C82.5,161.2,82.3,161.2,82.1,161.2z"/>
				<path class="st19" d="M82.1,172.9c-2.5,0-4.6-1.9-4.9-4.5c-0.3-2.8,1.6-5.4,4.4-5.7c44.8-5.3,90.1-5.3,134.9-0.1
					c2.7,0.3,4.7,2.9,4.4,5.7c-0.3,2.8-2.8,4.8-5.5,4.5c-44-5.2-88.6-5.2-132.6,0.1C82.5,172.9,82.3,172.9,82.1,172.9z"/>
			</g>
			<g>
				<path class="st20" d="M176.8,135.7l6.3,0.4c3.1,0.2,5.9-2.2,6-5.4l0.1-0.9c0.1-1,0.9-1.8,2-1.7c10.6,0.7,20.8,1.8,30.7,3.2
					c0.6,0.1,1.1,0.5,1.4,1l5.6,11c0.4,0.9-0.2,1.9-1.2,1.8l-10.2-0.6l-41.1-4.5L176.8,135.7z"/>
				<path class="st20" d="M120.7,135.7l-6.3,0.4c-3.1,0.2-5.9-2.2-6-5.4l-0.1-0.9c-0.1-1-0.9-1.8-2-1.7c-10.6,0.7-20.8,1.8-30.7,3.2
					c-0.6,0.1-1.1,0.5-1.4,1l-5.6,11c-0.4,0.9,0.2,1.9,1.2,1.8l10.2-0.6l41.1-4.5L120.7,135.7z"/>
				<path class="st21" d="M121.2,140.1l-0.5-4.4l-6.3,0.4c-1.3,0.1-2.6-0.3-3.6-1c-9.8,0.6-19.5,1.5-29.2,2.6
					c-2.7,0.3-4.7,2.8-4.4,5.5c0.1,0.6,0.2,1.1,0.5,1.5l2.4-0.1L121.2,140.1z"/>
				<path class="st21" d="M220.3,144.7c0.2-0.5,0.4-1,0.5-1.6c0.3-2.7-1.6-5.2-4.4-5.5c-9.9-1.1-19.8-2-29.7-2.6
					c-1,0.8-2.3,1.2-3.7,1.1l-6.3-0.4l-0.5,4.4l41.1,4.5L220.3,144.7z"/>
				<path class="st20" d="M118.5,169.6l-4.7,0.3c-3.6,0.2-6.4,3.4-6.1,7.1v0c0.1,1.4-0.9,2.6-2.3,2.8c-9.8,0.6-19.8,1.7-30,3.3
					c-0.6,0.1-1.2-0.2-1.5-0.7c-1.4-3.2-3.4-6.3-5.9-9.5c-0.6-0.9,0-2.1,1-2.3c3.3-1.1,6.8-1.7,10.7-2.1l37.9-3.8L118.5,169.6z"/>
				<path class="st18" d="M82.1,150.2c-2.5,0-4.6-1.9-4.9-4.4c-0.3-2.7,1.6-5.2,4.4-5.5c44.7-5.1,90.1-5.1,134.9,0
					c2.7,0.3,4.7,2.8,4.4,5.5c-0.3,2.7-2.8,4.7-5.5,4.4c-44-5-88.6-5-132.6,0C82.5,150.2,82.3,150.2,82.1,150.2z"/>
				<path class="st20" d="M179,169.6l4.7,0.3c3.6,0.2,6.4,3.4,6.1,7.1v0c-0.1,1.4,0.9,2.6,2.3,2.8c9.8,0.6,19.8,1.7,30,3.3
					c0.6,0.1,1.2-0.2,1.5-0.7c1.4-3.2,3.4-6.3,5.9-9.5c0.6-0.9,0-2.1-1-2.3c-3.3-1.1-6.8-1.7-10.7-2.1l-37.9-3.8L179,169.6z"/>
				<path class="st18" d="M82.1,161.5c-2.5,0-4.6-1.9-4.9-4.4c-0.3-2.7,1.6-5.2,4.4-5.5c44.7-5.1,90.1-5.1,134.9,0
					c2.7,0.3,4.7,2.8,4.4,5.5c-0.3,2.7-2.8,4.7-5.5,4.4c-44-5-88.6-5-132.6,0C82.5,161.5,82.3,161.5,82.1,161.5z"/>
				<path class="st18" d="M82.1,172.7c-2.5,0-4.6-1.9-4.9-4.4c-0.3-2.7,1.6-5.2,4.4-5.5c44.7-5.1,90.1-5.1,134.9,0
					c2.7,0.3,4.7,2.8,4.4,5.5c-0.3,2.7-2.8,4.7-5.5,4.4c-44-5-88.6-5-132.6,0C82.5,172.7,82.3,172.7,82.1,172.7z"/>
				<path class="st20" d="M82.1,148.9c-2.5,0-4.6-1.9-4.9-4.4c-0.3-2.7,1.6-5.2,4.4-5.5c44.7-5.1,90.1-5.1,134.9,0
					c2.7,0.3,4.7,2.8,4.4,5.5c-0.3,2.7-2.8,4.7-5.5,4.4c-44-5-88.6-5-132.6,0C82.5,148.9,82.3,148.9,82.1,148.9z"/>
				<path class="st20" d="M82.1,160.1c-2.5,0-4.6-1.9-4.9-4.4c-0.3-2.7,1.6-5.2,4.4-5.5c44.7-5.1,90.1-5.1,134.9,0
					c2.7,0.3,4.7,2.8,4.4,5.5c-0.3,2.7-2.8,4.7-5.5,4.4c-44-5-88.6-5-132.6,0C82.5,160.1,82.3,160.1,82.1,160.1z"/>
				<path class="st20" d="M82.1,171.4c-2.5,0-4.6-1.9-4.9-4.4c-0.3-2.7,1.6-5.2,4.4-5.5c44.8-5.1,90.1-5.1,134.9,0
					c2.7,0.3,4.7,2.8,4.4,5.5c-0.3,2.7-2.8,4.7-5.5,4.4c-44-5-88.6-5-132.6,0C82.5,171.3,82.3,171.4,82.1,171.4z"/>
			</g>
		</g>
	</g>
</g>
</svg>
